<?xml version="1.0" encoding="UTF-8" standalone="no"?>
<!-- Created with Inkscape (http://www.inkscape.org/) -->

<svg
   width="29.104168mm"
   height="29.104168mm"
   viewBox="0 0 29.104167 29.104168"
   version="1.1"
   id="svg3758"
   xmlns="http://www.w3.org/2000/svg"
   xmlns:svg="http://www.w3.org/2000/svg">
  <defs
     id="defs3755" />
  <g
     id="layer1"
     transform="translate(-46.480176,-75.222108)">
    <g
       id="g1842"
       style="display:inline"
       transform="translate(-6.4677474,297.77419)">
      <path
         id="path7901"
         d="m 62.50001,-213 v -2.5 L 67.5,-213 c 0,0 -4.99999,2.49999 -4.99999,2.49999 z"
         style="display:inline;opacity:1;fill:none;fill-opacity:1;stroke:#000000;stroke-width:0.25;stroke-linecap:round;stroke-linejoin:round;stroke-miterlimit:4;stroke-dasharray:none;stroke-dashoffset:0;stroke-opacity:1;paint-order:normal" />
      <path
         style="display:inline;opacity:1;fill:none;fill-opacity:1;stroke:#000000;stroke-width:0.25;stroke-linecap:round;stroke-linejoin:round;stroke-miterlimit:4;stroke-dasharray:none;stroke-dashoffset:0;stroke-opacity:1;paint-order:normal"
         d="M 67.50001,-208.00001 H 65.000009 L 67.50001,-213 c 0,0 2.49999,4.99999 2.49999,4.99999 z"
         id="path7903" />
      <path
         style="display:inline;opacity:1;fill:none;fill-opacity:1;stroke:#000000;stroke-width:0.25;stroke-linecap:round;stroke-linejoin:round;stroke-miterlimit:4;stroke-dasharray:none;stroke-dashoffset:0;stroke-opacity:1;paint-order:normal"
         d="m 60.00001,-213 h -5"
         id="path7905" />
      <path
         style="display:inline;opacity:1;fill:none;fill-opacity:1;stroke:#000000;stroke-width:0.25;stroke-linecap:round;stroke-linejoin:round;stroke-miterlimit:4;stroke-dasharray:none;stroke-dashoffset:0;stroke-opacity:1;paint-order:normal"
         d="m 67.50001,-205.5 v 4.99999"
         id="path7907" />
      <path
         id="path7909"
         d="m 72.5,-213 v 2.5 l -4.99999,-2.5 c 0,0 4.99999,-2.49999 4.99999,-2.49999 z"
         style="display:inline;opacity:1;fill:none;fill-opacity:1;stroke:#000000;stroke-width:0.25;stroke-linecap:round;stroke-linejoin:round;stroke-miterlimit:4;stroke-dasharray:none;stroke-dashoffset:0;stroke-opacity:1;paint-order:normal" />
      <path
         id="path7911"
         d="m 75.000011,-213 h 4.99999"
         style="display:inline;opacity:1;fill:none;fill-opacity:1;stroke:#000000;stroke-width:0.25;stroke-linecap:round;stroke-linejoin:round;stroke-miterlimit:4;stroke-dasharray:none;stroke-dashoffset:0;stroke-opacity:1;paint-order:normal" />
    </g>
  </g>
</svg>
