<?xml version="1.0" encoding="UTF-8"?>
<!DOCTYPE svg PUBLIC "-//W3C//DTD SVG 1.1//EN" "http://www.w3.org/Graphics/SVG/1.1/DTD/svg11.dtd">
<svg version="1.2" width="198.39mm" height="67.74mm" viewBox="3162 3500 19839 6774" preserveAspectRatio="xMidYMid" fill-rule="evenodd" stroke-width="28.222" stroke-linejoin="round" xmlns="http://www.w3.org/2000/svg" xmlns:ooo="http://xml.openoffice.org/svg/export" xmlns:xlink="http://www.w3.org/1999/xlink" xmlns:presentation="http://sun.com/xmlns/staroffice/presentation" xmlns:smil="http://www.w3.org/2001/SMIL20/" xmlns:anim="urn:oasis:names:tc:opendocument:xmlns:animation:1.0" xml:space="preserve">
 <defs>
  <font id="EmbeddedFont_1" horiz-adv-x="2048">
   <font-face font-family="Arial embedded" units-per-em="2048" font-weight="normal" font-style="normal" ascent="1852" descent="423"/>
   <missing-glyph horiz-adv-x="2048" d="M 0,0 L 2047,0 2047,2047 0,2047 0,0 Z"/>
   <glyph unicode="ü" horiz-adv-x="874" d="M 831,0 L 831,156 C 748,36 636,-24 494,-24 431,-24 373,-12 319,12 264,36 224,66 198,103 171,139 153,183 142,236 135,271 131,327 131,404 L 131,1062 311,1062 311,473 C 311,379 315,316 322,283 333,236 357,199 394,172 431,145 476,131 530,131 584,131 635,145 682,173 729,200 763,238 783,286 802,333 812,402 812,493 L 812,1062 992,1062 992,0 831,0 Z M 281,1270 L 281,1475 469,1475 469,1270 281,1270 Z M 654,1270 L 654,1475 842,1475 842,1270 654,1270 Z"/>
   <glyph unicode="z" horiz-adv-x="954" d="M 40,0 L 40,146 716,922 C 639,918 572,916 513,916 L 80,916 80,1062 948,1062 948,943 373,269 262,146 C 343,152 418,155 489,155 L 980,155 980,0 40,0 Z"/>
   <glyph unicode="v" horiz-adv-x="980" d="M 430,0 L 26,1062 216,1062 444,426 C 469,357 491,286 512,212 528,268 550,335 579,414 L 815,1062 1000,1062 598,0 430,0 Z"/>
   <glyph unicode="u" horiz-adv-x="874" d="M 831,0 L 831,156 C 748,36 636,-24 494,-24 431,-24 373,-12 319,12 264,36 224,66 198,103 171,139 153,183 142,236 135,271 131,327 131,404 L 131,1062 311,1062 311,473 C 311,379 315,316 322,283 333,236 357,199 394,172 431,145 476,131 530,131 584,131 635,145 682,173 729,200 763,238 783,286 802,333 812,402 812,493 L 812,1062 992,1062 992,0 831,0 Z"/>
   <glyph unicode="t" horiz-adv-x="531" d="M 528,161 L 554,2 C 503,-9 458,-14 418,-14 353,-14 302,-4 266,17 230,38 205,65 190,99 175,132 168,203 168,311 L 168,922 36,922 36,1062 168,1062 168,1325 347,1433 347,1062 528,1062 528,922 347,922 347,301 C 347,250 350,217 357,202 363,187 373,176 388,167 402,158 422,154 449,154 469,154 495,156 528,161 Z"/>
   <glyph unicode="s" horiz-adv-x="901" d="M 63,317 L 241,345 C 251,274 279,219 325,181 370,143 434,124 516,124 599,124 660,141 700,175 740,208 760,248 760,293 760,334 742,366 707,389 682,405 621,425 523,450 391,483 300,512 249,537 198,561 159,595 133,638 106,681 93,728 93,780 93,827 104,871 126,912 147,952 177,985 214,1012 242,1033 280,1050 329,1065 377,1079 429,1086 484,1086 567,1086 641,1074 704,1050 767,1026 813,994 843,953 873,912 894,857 905,788 L 729,764 C 721,819 698,861 660,892 621,923 567,938 497,938 414,938 355,924 320,897 285,870 267,838 267,801 267,778 274,757 289,738 304,719 327,703 358,690 376,683 429,668 517,644 644,610 733,582 784,561 834,539 873,507 902,466 931,425 945,373 945,312 945,252 928,196 893,143 858,90 807,49 741,20 675,-9 600,-24 517,-24 379,-24 274,5 202,62 129,119 83,204 63,317 Z"/>
   <glyph unicode="r" horiz-adv-x="583" d="M 133,0 L 133,1062 295,1062 295,901 C 336,976 375,1026 410,1050 445,1074 483,1086 525,1086 586,1086 647,1067 710,1028 L 648,861 C 604,887 560,900 516,900 477,900 441,888 410,865 379,841 356,808 343,766 323,702 313,632 313,556 L 313,0 133,0 Z"/>
   <glyph unicode="o" horiz-adv-x="1006" d="M 68,531 C 68,728 123,873 232,968 323,1047 435,1086 566,1086 712,1086 831,1038 924,943 1017,847 1063,715 1063,546 1063,409 1043,302 1002,224 961,145 901,84 823,41 744,-2 659,-24 566,-24 417,-24 297,24 206,119 114,214 68,352 68,531 Z M 253,531 C 253,395 283,293 342,226 401,158 476,124 566,124 655,124 730,158 789,226 848,294 878,398 878,537 878,668 848,768 789,836 729,903 655,937 566,937 476,937 401,903 342,836 283,769 253,667 253,531 Z"/>
   <glyph unicode="n" horiz-adv-x="874" d="M 135,0 L 135,1062 297,1062 297,911 C 375,1028 488,1086 635,1086 699,1086 758,1075 812,1052 865,1029 905,998 932,961 959,924 977,879 988,828 995,795 998,736 998,653 L 998,0 818,0 818,646 C 818,719 811,774 797,811 783,847 758,876 723,898 687,919 645,930 597,930 520,930 454,906 399,857 343,808 315,716 315,580 L 315,0 135,0 Z"/>
   <glyph unicode="m" horiz-adv-x="1483" d="M 135,0 L 135,1062 296,1062 296,913 C 329,965 374,1007 429,1039 484,1070 547,1086 618,1086 697,1086 761,1070 812,1037 862,1004 897,959 918,900 1002,1024 1111,1086 1246,1086 1351,1086 1432,1057 1489,999 1546,940 1574,850 1574,729 L 1574,0 1395,0 1395,669 C 1395,741 1389,793 1378,825 1366,856 1345,882 1314,901 1283,920 1247,930 1206,930 1131,930 1069,905 1020,856 971,806 946,726 946,617 L 946,0 766,0 766,690 C 766,770 751,830 722,870 693,910 645,930 578,930 527,930 481,917 438,890 395,863 363,824 344,773 325,722 315,648 315,551 L 315,0 135,0 Z"/>
   <glyph unicode="l" horiz-adv-x="213" d="M 131,0 L 131,1466 311,1466 311,0 131,0 Z"/>
   <glyph unicode="k" horiz-adv-x="901" d="M 136,0 L 136,1466 316,1466 316,630 742,1062 975,1062 569,668 1016,0 794,0 443,543 316,421 316,0 136,0 Z"/>
   <glyph unicode="i" horiz-adv-x="187" d="M 136,1259 L 136,1466 316,1466 316,1259 136,1259 Z M 136,0 L 136,1062 316,1062 316,0 136,0 Z"/>
   <glyph unicode="h" horiz-adv-x="874" d="M 135,0 L 135,1466 315,1466 315,940 C 399,1037 505,1086 633,1086 712,1086 780,1071 838,1040 896,1009 938,966 963,911 988,856 1000,777 1000,673 L 1000,0 820,0 820,673 C 820,763 801,829 762,870 723,911 667,931 596,931 543,931 493,917 446,890 399,862 365,824 345,777 325,730 315,664 315,581 L 315,0 135,0 Z"/>
   <glyph unicode="g" horiz-adv-x="953" d="M 102,-88 L 277,-114 C 284,-168 305,-207 338,-232 383,-265 444,-282 521,-282 604,-282 669,-265 714,-232 759,-199 790,-152 806,-92 815,-55 820,22 819,139 740,46 642,0 525,0 379,0 266,53 186,158 106,263 66,390 66,537 66,638 84,732 121,818 158,903 211,969 281,1016 350,1063 432,1086 526,1086 651,1086 755,1035 836,934 L 836,1062 1002,1062 1002,144 C 1002,-21 985,-138 952,-207 918,-276 865,-331 792,-371 719,-411 629,-431 522,-431 395,-431 293,-402 215,-345 137,-288 99,-203 102,-88 Z M 251,550 C 251,411 279,309 334,245 389,181 459,149 542,149 625,149 694,181 750,245 806,308 834,408 834,544 834,674 805,772 748,838 690,904 620,937 539,937 459,937 391,905 335,840 279,775 251,678 251,550 Z"/>
   <glyph unicode="f" horiz-adv-x="636" d="M 178,0 L 178,922 19,922 19,1062 178,1062 178,1175 C 178,1246 184,1299 197,1334 214,1381 245,1419 289,1448 332,1477 393,1491 472,1491 523,1491 579,1485 640,1473 L 613,1316 C 576,1323 540,1326 507,1326 452,1326 414,1314 391,1291 368,1268 357,1224 357,1160 L 357,1062 564,1062 564,922 357,922 357,0 178,0 Z"/>
   <glyph unicode="e" horiz-adv-x="1006" d="M 862,342 L 1048,319 C 1019,210 964,126 885,66 806,6 704,-24 581,-24 426,-24 303,24 212,120 121,215 75,349 75,522 75,701 121,839 213,938 305,1037 424,1086 571,1086 713,1086 829,1038 919,941 1009,844 1054,708 1054,533 1054,522 1054,506 1053,485 L 261,485 C 268,368 301,279 360,217 419,155 493,124 582,124 648,124 704,141 751,176 798,211 835,266 862,342 Z M 271,633 L 864,633 C 856,722 833,789 796,834 739,903 664,938 573,938 490,938 421,910 365,855 308,800 277,726 271,633 Z"/>
   <glyph unicode="c" horiz-adv-x="954" d="M 828,389 L 1005,366 C 986,244 936,149 857,80 777,11 679,-24 563,-24 418,-24 301,24 213,119 124,214 80,350 80,527 80,642 99,742 137,828 175,914 233,979 311,1022 388,1065 473,1086 564,1086 679,1086 774,1057 847,999 920,940 967,857 988,750 L 813,723 C 796,794 767,848 725,884 682,920 631,938 571,938 480,938 407,906 350,841 293,776 265,673 265,532 265,389 292,286 347,221 402,156 473,124 561,124 632,124 691,146 738,189 785,232 815,299 828,389 Z"/>
   <glyph unicode="b" horiz-adv-x="927" d="M 301,0 L 134,0 134,1466 314,1466 314,943 C 390,1038 487,1086 605,1086 670,1086 732,1073 791,1047 849,1020 897,983 935,936 972,888 1002,830 1023,763 1044,696 1055,624 1055,547 1055,365 1010,224 920,125 830,26 722,-24 596,-24 471,-24 372,28 301,133 L 301,0 Z M 299,539 C 299,412 316,320 351,263 408,170 484,124 581,124 660,124 728,158 785,227 842,295 871,397 871,532 871,671 844,773 789,839 734,905 667,938 589,938 510,938 442,904 385,836 328,767 299,668 299,539 Z"/>
   <glyph unicode="a" horiz-adv-x="1006" d="M 828,131 C 761,74 697,34 636,11 574,-12 508,-24 437,-24 320,-24 231,5 168,62 105,119 74,191 74,280 74,332 86,380 110,423 133,466 164,500 203,526 241,552 284,572 332,585 367,594 421,603 492,612 637,629 744,650 813,674 814,699 814,714 814,721 814,794 797,846 763,876 717,917 649,937 558,937 473,937 411,922 371,893 330,863 300,810 281,735 L 105,759 C 121,834 147,895 184,942 221,988 274,1024 343,1049 412,1074 493,1086 584,1086 675,1086 748,1075 805,1054 862,1033 903,1006 930,974 957,941 975,900 986,851 992,820 995,765 995,685 L 995,445 C 995,278 999,172 1007,128 1014,83 1029,41 1052,0 L 864,0 C 845,37 833,81 828,131 Z M 813,533 C 748,506 650,484 519,465 445,454 393,442 362,429 331,416 308,396 291,371 274,345 266,316 266,285 266,237 284,197 321,165 357,133 410,117 480,117 549,117 611,132 665,163 719,193 759,234 784,287 803,328 813,388 813,467 L 813,533 Z"/>
   <glyph unicode="V" horiz-adv-x="1350" d="M 577,0 L 9,1466 219,1466 600,401 C 631,316 656,236 677,161 700,241 726,321 756,401 L 1152,1466 1350,1466 776,0 577,0 Z"/>
   <glyph unicode="T" horiz-adv-x="1192" d="M 531,0 L 531,1293 48,1293 48,1466 1210,1466 1210,1293 725,1293 725,0 531,0 Z"/>
   <glyph unicode="R" horiz-adv-x="1297" d="M 161,0 L 161,1466 811,1466 C 942,1466 1041,1453 1109,1427 1177,1400 1231,1354 1272,1287 1313,1220 1333,1147 1333,1066 1333,962 1299,874 1232,803 1165,732 1061,686 920,667 971,642 1010,618 1037,594 1094,542 1147,477 1198,399 L 1453,0 1209,0 1015,305 C 958,393 912,460 875,507 838,554 806,586 777,605 748,624 718,637 688,644 666,649 630,651 580,651 L 355,651 355,0 161,0 Z M 355,819 L 772,819 C 861,819 930,828 980,847 1030,865 1068,894 1094,935 1120,975 1133,1019 1133,1066 1133,1135 1108,1192 1058,1237 1007,1282 928,1304 819,1304 L 355,1304 355,819 Z"/>
   <glyph unicode="M" horiz-adv-x="1404" d="M 152,0 L 152,1466 444,1466 791,428 C 823,331 846,259 861,211 878,264 904,343 939,446 L 1290,1466 1551,1466 1551,0 1364,0 1364,1227 938,0 763,0 339,1248 339,0 152,0 Z"/>
   <glyph unicode="G" horiz-adv-x="1377" d="M 844,575 L 844,747 1465,748 1465,204 C 1370,128 1271,71 1170,33 1069,-6 965,-25 858,-25 714,-25 583,6 466,68 348,129 259,218 199,335 139,452 109,582 109,726 109,869 139,1002 199,1126 258,1249 344,1341 456,1401 568,1461 697,1491 843,1491 949,1491 1045,1474 1131,1440 1216,1405 1283,1357 1332,1296 1381,1235 1418,1155 1443,1056 L 1268,1008 C 1246,1083 1219,1141 1186,1184 1153,1227 1107,1261 1046,1287 985,1312 918,1325 844,1325 755,1325 679,1312 614,1285 549,1258 497,1222 458,1178 418,1134 387,1086 365,1033 328,942 309,844 309,738 309,607 332,498 377,410 422,322 487,257 573,214 659,171 750,150 847,150 931,150 1013,166 1093,199 1173,231 1234,265 1275,302 L 1275,575 844,575 Z"/>
   <glyph unicode="D" horiz-adv-x="1218" d="M 158,0 L 158,1466 663,1466 C 777,1466 864,1459 924,1445 1008,1426 1080,1391 1139,1340 1216,1275 1274,1191 1313,1090 1351,988 1370,872 1370,741 1370,630 1357,531 1331,445 1305,359 1272,288 1231,232 1190,175 1146,131 1098,99 1049,66 991,42 923,25 854,8 776,0 687,0 L 158,0 Z M 352,173 L 665,173 C 762,173 838,182 893,200 948,218 991,243 1024,276 1070,322 1106,384 1132,462 1157,539 1170,633 1170,744 1170,897 1145,1015 1095,1098 1044,1180 983,1235 911,1263 859,1283 775,1293 660,1293 L 352,1293 352,173 Z"/>
   <glyph unicode="B" horiz-adv-x="1113" d="M 150,0 L 150,1466 700,1466 C 812,1466 902,1451 970,1422 1037,1392 1090,1346 1129,1285 1167,1223 1186,1158 1186,1091 1186,1028 1169,969 1135,914 1101,859 1050,814 981,780 1070,754 1138,710 1186,647 1233,584 1257,510 1257,425 1257,356 1243,293 1214,234 1185,175 1149,129 1106,97 1063,65 1010,41 946,25 881,8 802,0 709,0 L 150,0 Z M 344,850 L 661,850 C 747,850 809,856 846,867 895,882 933,906 958,940 983,974 995,1017 995,1068 995,1117 983,1160 960,1197 937,1234 903,1259 860,1273 817,1286 742,1293 637,1293 L 344,1293 344,850 Z M 344,173 L 709,173 C 772,173 816,175 841,180 886,188 923,201 953,220 983,239 1008,266 1027,302 1046,337 1056,378 1056,425 1056,480 1042,527 1014,568 986,608 947,636 898,653 848,669 776,677 683,677 L 344,677 344,173 Z"/>
   <glyph unicode="A" horiz-adv-x="1403" d="M -3,0 L 560,1466 769,1466 1369,0 1148,0 977,444 364,444 203,0 -3,0 Z M 420,602 L 917,602 764,1008 C 717,1131 683,1233 660,1312 641,1218 615,1125 581,1032 L 420,602 Z"/>
   <glyph unicode="=" horiz-adv-x="980" d="M 1082,862 L 114,862 114,1030 1082,1030 1082,862 Z M 1082,417 L 114,417 114,585 1082,585 1082,417 Z"/>
   <glyph unicode="/" horiz-adv-x="583" d="M 0,-25 L 425,1491 569,1491 145,-25 0,-25 Z"/>
   <glyph unicode="!" horiz-adv-x="239" d="M 231,364 L 176,1141 176,1466 399,1466 399,1141 347,364 231,364 Z M 184,0 L 184,205 391,205 391,0 184,0 Z"/>
   <glyph unicode=" " horiz-adv-x="556"/>
  </font>
 </defs>
 <defs>
  <font id="EmbeddedFont_2" horiz-adv-x="2048">
   <font-face font-family="Liberation Sans embedded" units-per-em="2048" font-weight="normal" font-style="normal" ascent="1852" descent="423"/>
   <missing-glyph horiz-adv-x="2048" d="M 0,0 L 2047,0 2047,2047 0,2047 0,0 Z"/>
   <glyph unicode="ä" horiz-adv-x="1060" d="M 414,-20 C 305,-20 224,9 169,66 114,123 87,202 87,302 87,414 124,500 198,560 271,620 390,652 554,656 L 797,660 797,719 C 797,807 778,870 741,908 704,946 645,965 565,965 484,965 426,951 389,924 352,897 330,853 323,793 L 135,810 C 166,1005 310,1102 569,1102 705,1102 807,1071 876,1009 945,946 979,856 979,738 L 979,272 C 979,219 986,179 1000,152 1014,125 1041,111 1080,111 1097,111 1117,113 1139,118 L 1139,6 C 1094,-5 1047,-10 1000,-10 933,-10 885,8 855,43 824,78 807,132 803,207 L 797,207 C 751,124 698,66 637,32 576,-3 501,-20 414,-20 Z M 455,115 C 521,115 580,130 631,160 682,190 723,231 753,284 782,336 797,390 797,445 L 797,534 600,530 C 515,529 451,520 408,504 364,488 330,463 307,430 284,397 272,353 272,299 272,240 288,195 320,163 351,131 396,115 455,115 Z M 674,1219 L 674,1403 837,1403 837,1219 674,1219 Z M 280,1219 L 280,1403 445,1403 445,1219 280,1219 Z"/>
   <glyph unicode="z" horiz-adv-x="848" d="M 83,0 L 83,137 688,943 117,943 117,1082 901,1082 901,945 295,139 922,139 922,0 83,0 Z"/>
   <glyph unicode="y" horiz-adv-x="980" d="M 191,-425 C 142,-425 100,-421 67,-414 L 67,-279 C 92,-283 120,-285 151,-285 263,-285 352,-203 417,-38 L 434,5 5,1082 197,1082 425,484 C 428,475 432,464 437,451 442,438 457,394 482,320 507,246 521,205 523,196 L 593,393 830,1082 1020,1082 604,0 C 559,-115 518,-201 479,-257 440,-314 398,-356 351,-383 304,-411 250,-425 191,-425 Z"/>
   <glyph unicode="v" horiz-adv-x="1033" d="M 613,0 L 400,0 7,1082 199,1082 437,378 C 446,351 469,272 506,141 L 541,258 580,376 826,1082 1017,1082 613,0 Z"/>
   <glyph unicode="u" horiz-adv-x="874" d="M 314,1082 L 314,396 C 314,325 321,269 335,230 349,191 371,162 402,145 433,128 478,119 537,119 624,119 692,149 742,208 792,267 817,350 817,455 L 817,1082 997,1082 997,231 C 997,105 999,28 1003,0 L 833,0 C 832,3 832,12 831,27 830,42 830,59 829,78 828,97 826,132 825,185 L 822,185 C 781,110 733,58 679,27 624,-4 557,-20 476,-20 357,-20 271,10 216,69 161,128 133,225 133,361 L 133,1082 314,1082 Z"/>
   <glyph unicode="t" horiz-adv-x="531" d="M 554,8 C 495,-8 434,-16 372,-16 228,-16 156,66 156,229 L 156,951 31,951 31,1082 163,1082 216,1324 336,1324 336,1082 536,1082 536,951 336,951 336,268 C 336,216 345,180 362,159 379,138 408,127 450,127 474,127 509,132 554,141 L 554,8 Z"/>
   <glyph unicode="s" horiz-adv-x="927" d="M 950,299 C 950,197 912,118 835,63 758,8 650,-20 511,-20 376,-20 273,2 200,47 127,91 79,160 57,254 L 216,285 C 231,227 263,185 311,158 359,131 426,117 511,117 602,117 669,131 712,159 754,187 775,229 775,285 775,328 760,362 731,389 702,416 654,438 589,455 L 460,489 C 357,516 283,542 240,568 196,593 162,624 137,661 112,698 100,743 100,796 100,895 135,970 206,1022 276,1073 378,1099 513,1099 632,1099 727,1078 798,1036 868,994 912,927 931,834 L 769,814 C 759,862 732,899 689,925 645,950 586,963 513,963 432,963 372,951 333,926 294,901 275,864 275,814 275,783 283,758 299,738 315,718 339,701 370,687 401,673 467,654 568,629 663,605 732,583 774,563 816,542 849,520 874,495 898,470 917,442 930,410 943,377 950,340 950,299 Z"/>
   <glyph unicode="r" horiz-adv-x="530" d="M 142,0 L 142,830 C 142,906 140,990 136,1082 L 306,1082 C 311,959 314,886 314,861 L 318,861 C 347,954 380,1017 417,1051 454,1085 507,1102 575,1102 599,1102 623,1099 648,1092 L 648,927 C 624,934 592,937 552,937 477,937 420,905 381,841 342,776 322,684 322,564 L 322,0 142,0 Z"/>
   <glyph unicode="o" horiz-adv-x="980" d="M 1053,542 C 1053,353 1011,212 928,119 845,26 724,-20 565,-20 407,-20 288,28 207,125 126,221 86,360 86,542 86,915 248,1102 571,1102 736,1102 858,1057 936,966 1014,875 1053,733 1053,542 Z M 864,542 C 864,691 842,800 798,868 753,935 679,969 574,969 469,969 393,935 346,866 299,797 275,689 275,542 275,399 298,292 345,221 391,149 464,113 563,113 671,113 748,148 795,217 841,286 864,395 864,542 Z"/>
   <glyph unicode="n" horiz-adv-x="874" d="M 825,0 L 825,686 C 825,757 818,813 804,852 790,891 768,920 737,937 706,954 661,963 602,963 515,963 447,933 397,874 347,815 322,732 322,627 L 322,0 142,0 142,851 C 142,977 140,1054 136,1082 L 306,1082 C 307,1079 307,1070 308,1055 309,1040 310,1024 311,1005 312,986 313,950 314,897 L 317,897 C 358,972 406,1025 461,1056 515,1087 582,1102 663,1102 782,1102 869,1073 924,1014 979,955 1006,857 1006,721 L 1006,0 825,0 Z"/>
   <glyph unicode="m" horiz-adv-x="1457" d="M 768,0 L 768,686 C 768,791 754,863 725,903 696,943 645,963 570,963 493,963 433,934 388,875 343,816 321,734 321,627 L 321,0 142,0 142,851 C 142,977 140,1054 136,1082 L 306,1082 C 307,1079 307,1070 308,1055 309,1040 310,1024 311,1005 312,986 313,950 314,897 L 317,897 C 356,974 400,1027 450,1057 500,1087 561,1102 633,1102 715,1102 780,1086 828,1053 875,1020 908,968 927,897 L 930,897 C 967,970 1013,1022 1066,1054 1119,1086 1183,1102 1258,1102 1367,1102 1447,1072 1497,1013 1546,954 1571,856 1571,721 L 1571,0 1393,0 1393,686 C 1393,791 1379,863 1350,903 1321,943 1270,963 1195,963 1116,963 1055,934 1012,876 968,817 946,734 946,627 L 946,0 768,0 Z"/>
   <glyph unicode="l" horiz-adv-x="187" d="M 138,0 L 138,1484 318,1484 318,0 138,0 Z"/>
   <glyph unicode="k" horiz-adv-x="927" d="M 816,0 L 450,494 318,385 318,0 138,0 138,1484 318,1484 318,557 793,1082 1004,1082 565,617 1027,0 816,0 Z"/>
   <glyph unicode="i" horiz-adv-x="187" d="M 137,1312 L 137,1484 317,1484 317,1312 137,1312 Z M 137,0 L 137,1082 317,1082 317,0 137,0 Z"/>
   <glyph unicode="h" horiz-adv-x="874" d="M 317,897 C 356,968 402,1020 457,1053 511,1086 580,1102 663,1102 780,1102 867,1073 923,1015 978,956 1006,858 1006,721 L 1006,0 825,0 825,686 C 825,762 818,819 804,856 790,893 767,920 735,937 703,954 659,963 602,963 517,963 450,934 399,875 348,816 322,737 322,638 L 322,0 142,0 142,1484 322,1484 322,1098 C 322,1057 321,1015 319,972 316,929 315,904 314,897 L 317,897 Z"/>
   <glyph unicode="g" horiz-adv-x="927" d="M 548,-425 C 430,-425 336,-402 266,-355 196,-309 151,-243 131,-158 L 312,-132 C 324,-182 351,-220 392,-247 433,-274 486,-288 553,-288 732,-288 822,-183 822,27 L 822,201 820,201 C 786,132 739,80 680,45 621,10 551,-8 472,-8 339,-8 242,36 180,124 117,212 86,350 86,539 86,730 120,872 187,963 254,1054 355,1099 492,1099 569,1099 635,1082 692,1047 748,1012 791,962 822,897 L 824,897 C 824,917 825,952 828,1001 831,1050 833,1077 836,1082 L 1007,1082 C 1003,1046 1001,971 1001,858 L 1001,31 C 1001,-273 850,-425 548,-425 Z M 822,541 C 822,629 810,705 786,769 762,832 728,881 685,915 641,948 591,965 536,965 444,965 377,932 335,865 293,798 272,690 272,541 272,393 292,287 331,222 370,157 438,125 533,125 590,125 640,142 684,175 728,208 762,256 786,319 810,381 822,455 822,541 Z"/>
   <glyph unicode="e" horiz-adv-x="980" d="M 276,503 C 276,379 302,283 353,216 404,149 479,115 578,115 656,115 719,131 766,162 813,193 844,233 861,281 L 1019,236 C 954,65 807,-20 578,-20 418,-20 296,28 213,123 129,218 87,360 87,548 87,727 129,864 213,959 296,1054 416,1102 571,1102 889,1102 1048,910 1048,527 L 1048,503 276,503 Z M 862,641 C 852,755 823,838 775,891 727,943 658,969 568,969 481,969 412,940 361,882 310,823 282,743 278,641 L 862,641 Z"/>
   <glyph unicode="c" horiz-adv-x="901" d="M 275,546 C 275,402 298,295 343,226 388,157 457,122 548,122 612,122 666,139 709,174 752,209 778,262 788,334 L 970,322 C 956,218 912,135 837,73 762,11 668,-20 553,-20 402,-20 286,28 207,124 127,219 87,359 87,542 87,724 127,863 207,959 287,1054 402,1102 551,1102 662,1102 754,1073 827,1016 900,959 945,880 964,779 L 779,765 C 770,825 746,873 708,908 670,943 616,961 546,961 451,961 382,929 339,866 296,803 275,696 275,546 Z"/>
   <glyph unicode="a" horiz-adv-x="1060" d="M 414,-20 C 305,-20 224,9 169,66 114,123 87,202 87,302 87,414 124,500 198,560 271,620 390,652 554,656 L 797,660 797,719 C 797,807 778,870 741,908 704,946 645,965 565,965 484,965 426,951 389,924 352,897 330,853 323,793 L 135,810 C 166,1005 310,1102 569,1102 705,1102 807,1071 876,1009 945,946 979,856 979,738 L 979,272 C 979,219 986,179 1000,152 1014,125 1041,111 1080,111 1097,111 1117,113 1139,118 L 1139,6 C 1094,-5 1047,-10 1000,-10 933,-10 885,8 855,43 824,78 807,132 803,207 L 797,207 C 751,124 698,66 637,32 576,-3 501,-20 414,-20 Z M 455,115 C 521,115 580,130 631,160 682,190 723,231 753,284 782,336 797,390 797,445 L 797,534 600,530 C 515,529 451,520 408,504 364,488 330,463 307,430 284,397 272,353 272,299 272,240 288,195 320,163 351,131 396,115 455,115 Z"/>
   <glyph unicode="Z" horiz-adv-x="1139" d="M 1187,0 L 65,0 65,143 923,1253 138,1253 138,1409 1140,1409 1140,1270 282,156 1187,156 1187,0 Z"/>
   <glyph unicode="T" horiz-adv-x="1192" d="M 720,1253 L 720,0 530,0 530,1253 46,1253 46,1409 1204,1409 1204,1253 720,1253 Z"/>
   <glyph unicode="S" horiz-adv-x="1192" d="M 1272,389 C 1272,259 1221,158 1120,87 1018,16 875,-20 690,-20 347,-20 148,99 93,338 L 278,375 C 299,290 345,228 414,189 483,149 578,129 697,129 820,129 916,150 983,193 1050,235 1083,297 1083,379 1083,425 1073,462 1052,491 1031,520 1001,543 963,562 925,581 880,596 827,609 774,622 716,635 652,650 541,675 456,699 399,724 341,749 295,776 262,807 229,837 203,872 186,913 168,954 159,1000 159,1053 159,1174 205,1267 298,1332 390,1397 522,1430 694,1430 854,1430 976,1406 1061,1357 1146,1308 1205,1224 1239,1106 L 1051,1073 C 1030,1148 991,1202 933,1236 875,1269 795,1286 692,1286 579,1286 493,1267 434,1230 375,1193 345,1137 345,1063 345,1020 357,984 380,956 403,927 436,903 479,884 522,864 609,840 738,811 781,801 825,791 868,781 911,770 952,758 991,744 1030,729 1067,712 1102,693 1136,674 1166,650 1191,622 1216,594 1236,561 1251,523 1265,485 1272,440 1272,389 Z"/>
   <glyph unicode="O" horiz-adv-x="1430" d="M 1495,711 C 1495,564 1467,435 1411,324 1354,213 1273,128 1168,69 1063,10 938,-20 795,-20 650,-20 526,9 421,68 316,127 235,212 180,323 125,434 97,563 97,711 97,936 159,1113 282,1240 405,1367 577,1430 797,1430 940,1430 1065,1402 1170,1345 1275,1288 1356,1205 1412,1096 1467,987 1495,859 1495,711 Z M 1300,711 C 1300,886 1256,1024 1169,1124 1081,1224 957,1274 797,1274 636,1274 511,1225 423,1126 335,1027 291,889 291,711 291,534 336,394 425,291 514,187 637,135 795,135 958,135 1083,185 1170,286 1257,386 1300,528 1300,711 Z"/>
   <glyph unicode="N" horiz-adv-x="1165" d="M 1082,0 L 328,1200 333,1103 338,936 338,0 168,0 168,1409 390,1409 1152,201 C 1144,332 1140,426 1140,485 L 1140,1409 1312,1409 1312,0 1082,0 Z"/>
   <glyph unicode="M" horiz-adv-x="1350" d="M 1366,0 L 1366,940 C 1366,1044 1369,1144 1375,1240 1342,1121 1313,1027 1287,960 L 923,0 789,0 420,960 364,1130 331,1240 334,1129 338,940 338,0 168,0 168,1409 419,1409 794,432 C 807,393 820,351 833,306 845,261 853,228 857,208 862,235 874,275 891,330 908,384 919,418 925,432 L 1293,1409 1538,1409 1538,0 1366,0 Z"/>
   <glyph unicode="G" horiz-adv-x="1377" d="M 103,711 C 103,940 164,1117 287,1242 410,1367 582,1430 804,1430 960,1430 1087,1404 1184,1351 1281,1298 1356,1214 1409,1098 L 1227,1044 C 1187,1124 1132,1182 1062,1219 991,1256 904,1274 799,1274 636,1274 512,1225 426,1127 340,1028 297,890 297,711 297,533 343,393 434,290 525,187 652,135 813,135 905,135 991,149 1071,177 1150,205 1215,243 1264,291 L 1264,545 843,545 843,705 1440,705 1440,219 C 1365,143 1274,84 1166,43 1057,1 940,-20 813,-20 666,-20 539,9 432,68 325,127 244,211 188,322 131,432 103,562 103,711 Z"/>
   <glyph unicode="E" horiz-adv-x="1112" d="M 168,0 L 168,1409 1237,1409 1237,1253 359,1253 359,801 1177,801 1177,647 359,647 359,156 1278,156 1278,0 168,0 Z"/>
   <glyph unicode="D" horiz-adv-x="1244" d="M 1381,719 C 1381,574 1353,447 1296,338 1239,229 1159,145 1055,87 951,29 831,0 695,0 L 168,0 168,1409 634,1409 C 873,1409 1057,1349 1187,1230 1316,1110 1381,940 1381,719 Z M 1189,719 C 1189,894 1141,1027 1046,1119 950,1210 811,1256 630,1256 L 359,1256 359,153 673,153 C 776,153 867,176 946,221 1024,266 1084,332 1126,417 1168,502 1189,603 1189,719 Z"/>
   <glyph unicode="C" horiz-adv-x="1297" d="M 792,1274 C 636,1274 515,1224 428,1124 341,1023 298,886 298,711 298,538 343,400 434,295 524,190 646,137 800,137 997,137 1146,235 1245,430 L 1401,352 C 1343,231 1262,138 1157,75 1052,12 930,-20 791,-20 649,-20 526,10 423,69 319,128 240,212 186,322 131,431 104,561 104,711 104,936 165,1112 286,1239 407,1366 575,1430 790,1430 940,1430 1065,1401 1166,1342 1267,1283 1341,1196 1388,1081 L 1207,1021 C 1174,1103 1122,1166 1050,1209 977,1252 891,1274 792,1274 Z"/>
   <glyph unicode="B" horiz-adv-x="1086" d="M 1258,397 C 1258,272 1212,174 1121,105 1030,35 903,0 740,0 L 168,0 168,1409 680,1409 C 1011,1409 1176,1295 1176,1067 1176,984 1153,914 1106,857 1059,800 993,762 908,743 1020,730 1106,692 1167,631 1228,569 1258,491 1258,397 Z M 984,1044 C 984,1120 958,1174 906,1207 854,1240 779,1256 680,1256 L 359,1256 359,810 680,810 C 782,810 858,829 909,868 959,906 984,965 984,1044 Z M 1065,412 C 1065,578 948,661 715,661 L 359,661 359,153 730,153 C 847,153 932,175 985,218 1038,261 1065,326 1065,412 Z"/>
   <glyph unicode="A" horiz-adv-x="1350" d="M 1167,0 L 1006,412 364,412 202,0 4,0 579,1409 796,1409 1362,0 1167,0 Z M 685,1265 L 676,1237 C 659,1182 635,1111 602,1024 L 422,561 949,561 768,1026 C 749,1072 731,1124 712,1182 L 685,1265 Z"/>
   <glyph unicode="/" horiz-adv-x="557" d="M 0,-20 L 411,1484 569,1484 162,-20 0,-20 Z"/>
   <glyph unicode=" " horiz-adv-x="556"/>
  </font>
 </defs>
 <defs>
  <font id="EmbeddedFont_3" horiz-adv-x="2048">
   <font-face font-family="StarSymbol embedded" units-per-em="2048" font-weight="normal" font-style="normal" ascent="1402" descent="450"/>
   <missing-glyph horiz-adv-x="2048" d="M 0,0 L 2047,0 2047,2047 0,2047 0,0 Z"/>
   <glyph unicode="●" horiz-adv-x="1191" d="M 813,0 C 632,0 489,54 383,161 276,268 223,411 223,592 223,773 276,916 383,1023 489,1130 632,1184 813,1184 992,1184 1136,1130 1245,1023 1353,916 1407,772 1407,592 1407,412 1353,268 1245,161 1136,54 992,0 813,0 Z"/>
  </font>
 </defs>
 <defs class="EmbeddedBulletChars">
  <g id="bullet-char-template-57356" transform="scale(0.00048828125,-0.00048828125)">
   <path d="M 580,1141 L 1163,571 580,0 -4,571 580,1141 Z"/>
  </g>
  <g id="bullet-char-template-57354" transform="scale(0.00048828125,-0.00048828125)">
   <path d="M 8,1128 L 1137,1128 1137,0 8,0 8,1128 Z"/>
  </g>
  <g id="bullet-char-template-10146" transform="scale(0.00048828125,-0.00048828125)">
   <path d="M 174,0 L 602,739 174,1481 1456,739 174,0 Z M 1358,739 L 309,1346 659,739 1358,739 Z"/>
  </g>
  <g id="bullet-char-template-10132" transform="scale(0.00048828125,-0.00048828125)">
   <path d="M 2015,739 L 1276,0 717,0 1260,543 174,543 174,936 1260,936 717,1481 1274,1481 2015,739 Z"/>
  </g>
  <g id="bullet-char-template-10007" transform="scale(0.00048828125,-0.00048828125)">
   <path d="M 0,-2 C -7,14 -16,27 -25,37 L 356,567 C 262,823 215,952 215,954 215,979 228,992 255,992 264,992 276,990 289,987 310,991 331,999 354,1012 L 381,999 492,748 772,1049 836,1024 860,1049 C 881,1039 901,1025 922,1006 886,937 835,863 770,784 769,783 710,716 594,584 L 774,223 C 774,196 753,168 711,139 L 727,119 C 717,90 699,76 672,76 641,76 570,178 457,381 L 164,-76 C 142,-110 111,-127 72,-127 30,-127 9,-110 8,-76 1,-67 -2,-52 -2,-32 -2,-23 -1,-13 0,-2 Z"/>
  </g>
  <g id="bullet-char-template-10004" transform="scale(0.00048828125,-0.00048828125)">
   <path d="M 285,-33 C 182,-33 111,30 74,156 52,228 41,333 41,471 41,549 55,616 82,672 116,743 169,778 240,778 293,778 328,747 346,684 L 369,508 C 377,444 397,411 428,410 L 1163,1116 C 1174,1127 1196,1133 1229,1133 1271,1133 1292,1118 1292,1087 L 1292,965 C 1292,929 1282,901 1262,881 L 442,47 C 390,-6 338,-33 285,-33 Z"/>
  </g>
  <g id="bullet-char-template-9679" transform="scale(0.00048828125,-0.00048828125)">
   <path d="M 813,0 C 632,0 489,54 383,161 276,268 223,411 223,592 223,773 276,916 383,1023 489,1130 632,1184 813,1184 992,1184 1136,1130 1245,1023 1353,916 1407,772 1407,592 1407,412 1353,268 1245,161 1136,54 992,0 813,0 Z"/>
  </g>
  <g id="bullet-char-template-8226" transform="scale(0.00048828125,-0.00048828125)">
   <path d="M 346,457 C 273,457 209,483 155,535 101,586 74,649 74,723 74,796 101,859 155,911 209,963 273,989 346,989 419,989 480,963 531,910 582,859 608,796 608,723 608,648 583,586 532,535 482,483 420,457 346,457 Z"/>
  </g>
  <g id="bullet-char-template-8211" transform="scale(0.00048828125,-0.00048828125)">
   <path d="M -4,459 L 1135,459 1135,606 -4,606 -4,459 Z"/>
  </g>
  <g id="bullet-char-template-61548" transform="scale(0.00048828125,-0.00048828125)">
   <path d="M 173,740 C 173,903 231,1043 346,1159 462,1274 601,1332 765,1332 928,1332 1067,1274 1183,1159 1299,1043 1357,903 1357,740 1357,577 1299,437 1183,322 1067,206 928,148 765,148 601,148 462,206 346,322 231,437 173,577 173,740 Z"/>
  </g>
 </defs>
 <g class="Page">
  <g class="OLE2">
   <g id="id3">
    <rect class="BoundingBox" stroke="none" fill="none" x="3162" y="3500" width="5589" height="6774"/>
    <defs>
     <clipPath id="clip_path_1" clipPathUnits="userSpaceOnUse">
      <path d="M 3162,3500 L 8750,3500 8750,10273 3162,10273 3162,3500 Z"/>
     </clipPath>
    </defs>
    <g clip-path="url(#clip_path_1)"/>
    <rect fill="rgb(254,127,0)" stroke="none" x="3163" y="5271" width="5527" height="450"/>
    <path fill="none" stroke="rgb(0,0,0)" stroke-width="26" stroke-linejoin="round" d="M 3140,3498 L 8722,3498"/>
    <path fill="none" stroke="rgb(0,0,0)" stroke-width="26" stroke-linejoin="round" d="M 3153,3485 L 3153,3961"/>
    <path fill="none" stroke="rgb(0,0,0)" stroke-width="26" stroke-linejoin="round" d="M 8709,3485 L 8709,3961"/>
    <path fill="none" stroke="rgb(0,0,0)" stroke-width="26" stroke-linejoin="round" d="M 8709,3485 L 8709,3961"/>
    <path fill="none" stroke="rgb(0,0,0)" stroke-width="26" stroke-linejoin="round" d="M 3140,3948 L 8722,3948"/>
    <path fill="none" stroke="rgb(0,0,0)" stroke-width="26" stroke-linejoin="round" d="M 3140,4397 L 8722,4397"/>
    <path fill="none" stroke="rgb(0,0,0)" stroke-width="26" stroke-linejoin="round" d="M 3153,4384 L 3153,4860"/>
    <path fill="none" stroke="rgb(0,0,0)" stroke-width="26" stroke-linejoin="round" d="M 8709,4384 L 8709,4860"/>
    <path fill="none" stroke="rgb(0,0,0)" stroke-width="26" stroke-linejoin="round" d="M 8709,4384 L 8709,4860"/>
    <path fill="none" stroke="rgb(0,0,0)" stroke-width="26" stroke-linejoin="round" d="M 3140,4847 L 8722,4847"/>
    <path fill="none" stroke="rgb(0,0,0)" stroke-width="26" stroke-linejoin="round" d="M 3140,5297 L 8722,5297"/>
    <path fill="none" stroke="rgb(0,0,0)" stroke-width="26" stroke-linejoin="round" d="M 3153,5284 L 3153,5760"/>
    <path fill="none" stroke="rgb(0,0,0)" stroke-width="26" stroke-linejoin="round" d="M 8709,5284 L 8709,5760"/>
    <path fill="none" stroke="rgb(0,0,0)" stroke-width="26" stroke-linejoin="round" d="M 8709,5284 L 8709,5760"/>
    <path fill="none" stroke="rgb(0,0,0)" stroke-width="26" stroke-linejoin="round" d="M 3140,5747 L 8722,5747"/>
    <path fill="none" stroke="rgb(0,0,0)" stroke-width="26" stroke-linejoin="round" d="M 3140,6197 L 8722,6197"/>
    <path fill="none" stroke="rgb(0,0,0)" stroke-width="26" stroke-linejoin="round" d="M 3153,6184 L 3153,6659"/>
    <path fill="none" stroke="rgb(0,0,0)" stroke-width="26" stroke-linejoin="round" d="M 8709,6184 L 8709,6659"/>
    <path fill="none" stroke="rgb(0,0,0)" stroke-width="26" stroke-linejoin="round" d="M 8709,6184 L 8709,6659"/>
    <path fill="none" stroke="rgb(0,0,0)" stroke-width="26" stroke-linejoin="round" d="M 3140,6646 L 8722,6646"/>
    <path fill="none" stroke="rgb(0,0,0)" stroke-width="26" stroke-linejoin="round" d="M 3140,7096 L 8722,7096"/>
    <path fill="none" stroke="rgb(0,0,0)" stroke-width="26" stroke-linejoin="round" d="M 3153,7083 L 3153,7559"/>
    <path fill="none" stroke="rgb(0,0,0)" stroke-width="26" stroke-linejoin="round" d="M 8709,7083 L 8709,7559"/>
    <path fill="none" stroke="rgb(0,0,0)" stroke-width="26" stroke-linejoin="round" d="M 8709,7083 L 8709,7559"/>
    <path fill="none" stroke="rgb(0,0,0)" stroke-width="26" stroke-linejoin="round" d="M 3140,7546 L 8722,7546"/>
    <path fill="none" stroke="rgb(0,0,0)" stroke-width="26" stroke-linejoin="round" d="M 3140,7996 L 8722,7996"/>
    <path fill="none" stroke="rgb(0,0,0)" stroke-width="26" stroke-linejoin="round" d="M 3153,7983 L 3153,8459"/>
    <path fill="none" stroke="rgb(0,0,0)" stroke-width="26" stroke-linejoin="round" d="M 8709,7983 L 8709,8459"/>
    <path fill="none" stroke="rgb(0,0,0)" stroke-width="26" stroke-linejoin="round" d="M 8709,7983 L 8709,8459"/>
    <path fill="none" stroke="rgb(0,0,0)" stroke-width="26" stroke-linejoin="round" d="M 3140,8446 L 8722,8446"/>
    <path fill="none" stroke="rgb(0,0,0)" stroke-width="26" stroke-linejoin="round" d="M 3140,8895 L 8722,8895"/>
    <path fill="none" stroke="rgb(0,0,0)" stroke-width="26" stroke-linejoin="round" d="M 3153,8882 L 3153,9358"/>
    <path fill="none" stroke="rgb(0,0,0)" stroke-width="26" stroke-linejoin="round" d="M 8709,8882 L 8709,9358"/>
    <path fill="none" stroke="rgb(0,0,0)" stroke-width="26" stroke-linejoin="round" d="M 8709,8882 L 8709,9358"/>
    <path fill="none" stroke="rgb(0,0,0)" stroke-width="26" stroke-linejoin="round" d="M 3140,9345 L 8722,9345"/>
    <path fill="none" stroke="rgb(0,0,0)" stroke-width="26" stroke-linejoin="round" d="M 3140,9795 L 8722,9795"/>
    <path fill="none" stroke="rgb(0,0,0)" stroke-width="26" stroke-linejoin="round" d="M 3140,10245 L 8722,10245"/>
    <path fill="none" stroke="rgb(0,0,0)" stroke-width="26" stroke-linejoin="round" d="M 3153,9782 L 3153,10258"/>
    <path fill="none" stroke="rgb(0,0,0)" stroke-width="26" stroke-linejoin="round" d="M 8709,9782 L 8709,10258"/>
    <path fill="none" stroke="rgb(0,0,0)" stroke-width="26" stroke-linejoin="round" d="M 8709,9782 L 8709,10258"/>
    <path fill="none" stroke="rgb(0,0,0)" stroke-width="26" stroke-linejoin="round" d="M 3140,10245 L 8722,10245"/>
    <text class="SVGTextShape"><tspan class="TextParagraph" font-family="Liberation Sans, sans-serif" font-size="353px" font-weight="400"><tspan class="TextPosition" x="5025" y="3836"><tspan fill="rgb(0,0,0)" stroke="none" style="white-space: pre">Gasanalyse</tspan></tspan></tspan></text>
    <text class="SVGTextShape"><tspan class="TextParagraph" font-family="Liberation Sans, sans-serif" font-size="353px" font-weight="400"><tspan class="TextPosition" x="4351" y="4734"><tspan fill="rgb(0,0,0)" stroke="none" style="white-space: pre">Ermittlung Gasvorrat</tspan></tspan></tspan></text>
    <text class="SVGTextShape"><tspan class="TextParagraph" font-family="Liberation Sans, sans-serif" font-size="353px" font-weight="400"><tspan class="TextPosition" x="4351" y="5632"><tspan fill="rgb(0,0,0)" stroke="none" style="white-space: pre">Ermittlung Tauchzeit</tspan></tspan></tspan></text>
    <text class="SVGTextShape"><tspan class="TextParagraph" font-family="Liberation Sans, sans-serif" font-size="353px" font-weight="400"><tspan class="TextPosition" x="4708" y="6530"><tspan fill="rgb(0,0,0)" stroke="none" style="white-space: pre">Ermittlung MOD</tspan></tspan></tspan></text>
    <text class="SVGTextShape"><tspan class="TextParagraph" font-family="Liberation Sans, sans-serif" font-size="353px" font-weight="400"><tspan class="TextPosition" x="4748" y="7428"><tspan fill="rgb(0,0,0)" stroke="none" style="white-space: pre">Ermittlung EAD</tspan></tspan></tspan></text>
    <text class="SVGTextShape"><tspan class="TextParagraph" font-family="Liberation Sans, sans-serif" font-size="353px" font-weight="400"><tspan class="TextPosition" x="3504" y="8326"><tspan fill="rgb(0,0,0)" stroke="none" style="white-space: pre">Ermittlung Nullzeit/Zeitzuschlag</tspan></tspan></tspan></text>
    <text class="SVGTextShape"><tspan class="TextParagraph" font-family="Liberation Sans, sans-serif" font-size="353px" font-weight="400"><tspan class="TextPosition" x="3927" y="9224"><tspan fill="rgb(0,0,0)" stroke="none" style="white-space: pre">Ermittlung CNS Belastung</tspan></tspan></tspan></text>
    <text class="SVGTextShape"><tspan class="TextParagraph" font-family="Liberation Sans, sans-serif" font-size="353px" font-weight="400"><tspan class="TextPosition" x="4060" y="10122"><tspan fill="rgb(0,0,0)" stroke="none" style="white-space: pre">Etikettierung Tauchgerät</tspan></tspan></tspan></text>
    <defs>
     <clipPath id="clip_path_2" clipPathUnits="userSpaceOnUse">
      <path d="M 3162,3500 L 8750,3500 8750,10273 3162,10273 3162,3500 Z"/>
     </clipPath>
    </defs>
    <g clip-path="url(#clip_path_2)">
     <path fill="rgb(114,159,207)" stroke="none" d="M 5730,4012 L 5730,4255 5506,4255 5954,4336 6402,4255 6178,4255 6178,4012 5730,4012 Z"/>
     <path fill="none" stroke="rgb(52,101,164)" d="M 5730,4012 L 5730,4255 5506,4255 5954,4336 6402,4255 6178,4255 6178,4012 5730,4012 Z"/>
     <path fill="rgb(114,159,207)" stroke="none" d="M 5724,4888 L 5724,5131 5500,5131 5948,5212 6396,5131 6172,5131 6172,4888 5724,4888 Z"/>
     <path fill="none" stroke="rgb(52,101,164)" d="M 5724,4888 L 5724,5131 5500,5131 5948,5212 6396,5131 6172,5131 6172,4888 5724,4888 Z"/>
     <path fill="rgb(114,159,207)" stroke="none" d="M 5714,5817 L 5714,6060 5490,6060 5938,6141 6386,6060 6162,6060 6162,5817 5714,5817 Z"/>
     <path fill="none" stroke="rgb(52,101,164)" d="M 5714,5817 L 5714,6060 5490,6060 5938,6141 6386,6060 6162,6060 6162,5817 5714,5817 Z"/>
     <path fill="rgb(114,159,207)" stroke="none" d="M 5729,6727 L 5729,6970 5505,6970 5953,7051 6401,6970 6177,6970 6177,6727 5729,6727 Z"/>
     <path fill="none" stroke="rgb(52,101,164)" d="M 5729,6727 L 5729,6970 5505,6970 5953,7051 6401,6970 6177,6970 6177,6727 5729,6727 Z"/>
     <path fill="rgb(114,159,207)" stroke="none" d="M 5720,7632 L 5720,7875 5496,7875 5944,7956 6392,7875 6168,7875 6168,7632 5720,7632 Z"/>
     <path fill="none" stroke="rgb(52,101,164)" d="M 5720,7632 L 5720,7875 5496,7875 5944,7956 6392,7875 6168,7875 6168,7632 5720,7632 Z"/>
     <path fill="rgb(114,159,207)" stroke="none" d="M 5712,8501 L 5712,8744 5488,8744 5936,8825 6384,8744 6160,8744 6160,8501 5712,8501 Z"/>
     <path fill="none" stroke="rgb(52,101,164)" d="M 5712,8501 L 5712,8744 5488,8744 5936,8825 6384,8744 6160,8744 6160,8501 5712,8501 Z"/>
     <path fill="rgb(114,159,207)" stroke="none" d="M 5706,9422 L 5706,9665 5482,9665 5930,9746 6378,9665 6154,9665 6154,9422 5706,9422 Z"/>
     <path fill="none" stroke="rgb(52,101,164)" d="M 5706,9422 L 5706,9665 5482,9665 5930,9746 6378,9665 6154,9665 6154,9422 5706,9422 Z"/>
    </g>
    <defs>
     <clipPath id="clip_path_3" clipPathUnits="userSpaceOnUse">
      <path d="M 3162,3500 L 8750,3500 8750,10273 3162,10273 3162,3500 Z"/>
     </clipPath>
    </defs>
    <g clip-path="url(#clip_path_3)"/>
    <defs>
     <clipPath id="clip_path_4" clipPathUnits="userSpaceOnUse">
      <path d="M 3162,3500 L 8750,3500 8750,10273 3162,10273 3162,3500 Z"/>
     </clipPath>
    </defs>
    <g clip-path="url(#clip_path_4)"/>
   </g>
  </g>
  <g class="TextShape">
   <g id="id4">
    <rect class="BoundingBox" stroke="none" fill="none" x="9750" y="3500" width="13251" height="6501"/>
    <text class="SVGTextShape"><tspan ooo:numbering-type="bullet-style" class="ListItem" font-family="Arial, sans-serif" font-size="493px" font-weight="400"><tspan class="TextPosition" x="10000" y="3951"><tspan id="id5.bp" class="BulletPlaceholder"/></tspan><tspan class="TextPosition" x="10600" y="4070"><tspan fill="rgb(0,0,0)" stroke="none" style="white-space: pre">Tauchzeit = verfügbares Gasvolumen / AMV / Druck</tspan></tspan></tspan><tspan ooo:numbering-type="bullet-style" class="ListItem" font-family="Arial, sans-serif" font-size="493px" font-weight="400"><tspan class="TextPosition" x="10000" y="4502"><tspan id="id6.bp" class="BulletPlaceholder"/></tspan><tspan class="TextPosition" x="10600" y="4621"><tspan fill="rgb(0,0,0)" stroke="none" style="white-space: pre">Reserve Berücksichtigen!  </tspan></tspan></tspan></text>
    <g class="BulletChars">
     <g id="bullet-char-id5.bp" class="BulletChar">
      <g transform="translate(10000,3951)" fill="rgb(0,0,0)" stroke="none">
       <use transform="scale(221,221)" xlink:href="#bullet-char-template-9679"/>
      </g>
     </g>
     <g id="bullet-char-id6.bp" class="BulletChar">
      <g transform="translate(10000,4502)" fill="rgb(0,0,0)" stroke="none">
       <use transform="scale(221,221)" xlink:href="#bullet-char-template-9679"/>
      </g>
     </g>
    </g>
   </g>
  </g>
 </g>
</svg>