<?xml version="1.0" encoding="UTF-8"?>
<!DOCTYPE svg PUBLIC "-//W3C//DTD SVG 1.1//EN" "http://www.w3.org/Graphics/SVG/1.1/DTD/svg11.dtd">
<svg version="1.2" width="97.51mm" height="44.96mm" viewBox="11380 5649 9751 4496" preserveAspectRatio="xMidYMid" fill-rule="evenodd" stroke-width="28.222" stroke-linejoin="round" xmlns="http://www.w3.org/2000/svg" xmlns:ooo="http://xml.openoffice.org/svg/export" xmlns:xlink="http://www.w3.org/1999/xlink" xmlns:presentation="http://sun.com/xmlns/staroffice/presentation" xmlns:smil="http://www.w3.org/2001/SMIL20/" xmlns:anim="urn:oasis:names:tc:opendocument:xmlns:animation:1.0" xml:space="preserve">
 <defs>
  <font id="EmbeddedFont_1" horiz-adv-x="2048">
   <font-face font-family="Liberation Sans embedded" units-per-em="2048" font-weight="normal" font-style="normal" ascent="1852" descent="423"/>
   <missing-glyph horiz-adv-x="2048" d="M 0,0 L 2047,0 2047,2047 0,2047 0,0 Z"/>
   <glyph unicode="x" horiz-adv-x="980" d="M 801,0 L 510,444 217,0 23,0 408,556 41,1082 240,1082 510,661 778,1082 979,1082 612,558 1002,0 801,0 Z"/>
   <glyph unicode="r" horiz-adv-x="530" d="M 142,0 L 142,830 C 142,906 140,990 136,1082 L 306,1082 C 311,959 314,886 314,861 L 318,861 C 347,954 380,1017 417,1051 454,1085 507,1102 575,1102 599,1102 623,1099 648,1092 L 648,927 C 624,934 592,937 552,937 477,937 420,905 381,841 342,776 322,684 322,564 L 322,0 142,0 Z"/>
   <glyph unicode="p" horiz-adv-x="927" d="M 1053,546 C 1053,169 920,-20 655,-20 488,-20 376,43 319,168 L 314,168 C 317,163 318,106 318,-2 L 318,-425 138,-425 138,861 C 138,972 136,1046 132,1082 L 306,1082 C 307,1079 308,1070 309,1054 310,1037 312,1012 314,978 315,944 316,921 316,908 L 320,908 C 352,975 394,1024 447,1055 500,1086 569,1101 655,1101 788,1101 888,1056 954,967 1020,878 1053,737 1053,546 Z M 864,542 C 864,693 844,800 803,865 762,930 698,962 609,962 538,962 482,947 442,917 401,887 371,840 350,777 329,713 318,630 318,528 318,386 341,281 386,214 431,147 505,113 607,113 696,113 762,146 803,212 844,277 864,387 864,542 Z"/>
   <glyph unicode="n" horiz-adv-x="874" d="M 825,0 L 825,686 C 825,757 818,813 804,852 790,891 768,920 737,937 706,954 661,963 602,963 515,963 447,933 397,874 347,815 322,732 322,627 L 322,0 142,0 142,851 C 142,977 140,1054 136,1082 L 306,1082 C 307,1079 307,1070 308,1055 309,1040 310,1024 311,1005 312,986 313,950 314,897 L 317,897 C 358,972 406,1025 461,1056 515,1087 582,1102 663,1102 782,1102 869,1073 924,1014 979,955 1006,857 1006,721 L 1006,0 825,0 Z"/>
   <glyph unicode="m" horiz-adv-x="1457" d="M 768,0 L 768,686 C 768,791 754,863 725,903 696,943 645,963 570,963 493,963 433,934 388,875 343,816 321,734 321,627 L 321,0 142,0 142,851 C 142,977 140,1054 136,1082 L 306,1082 C 307,1079 307,1070 308,1055 309,1040 310,1024 311,1005 312,986 313,950 314,897 L 317,897 C 356,974 400,1027 450,1057 500,1087 561,1102 633,1102 715,1102 780,1086 828,1053 875,1020 908,968 927,897 L 930,897 C 967,970 1013,1022 1066,1054 1119,1086 1183,1102 1258,1102 1367,1102 1447,1072 1497,1013 1546,954 1571,856 1571,721 L 1571,0 1393,0 1393,686 C 1393,791 1379,863 1350,903 1321,943 1270,963 1195,963 1116,963 1055,934 1012,876 968,817 946,734 946,627 L 946,0 768,0 Z"/>
   <glyph unicode="l" horiz-adv-x="187" d="M 138,0 L 138,1484 318,1484 318,0 138,0 Z"/>
   <glyph unicode="i" horiz-adv-x="187" d="M 137,1312 L 137,1484 317,1484 317,1312 137,1312 Z M 137,0 L 137,1082 317,1082 317,0 137,0 Z"/>
   <glyph unicode="e" horiz-adv-x="980" d="M 276,503 C 276,379 302,283 353,216 404,149 479,115 578,115 656,115 719,131 766,162 813,193 844,233 861,281 L 1019,236 C 954,65 807,-20 578,-20 418,-20 296,28 213,123 129,218 87,360 87,548 87,727 129,864 213,959 296,1054 416,1102 571,1102 889,1102 1048,910 1048,527 L 1048,503 276,503 Z M 862,641 C 852,755 823,838 775,891 727,943 658,969 568,969 481,969 412,940 361,882 310,823 282,743 278,641 L 862,641 Z"/>
   <glyph unicode="b" horiz-adv-x="927" d="M 1053,546 C 1053,169 920,-20 655,-20 573,-20 505,-5 451,25 396,54 352,102 318,168 L 316,168 C 316,147 315,116 312,74 309,31 307,7 306,0 L 132,0 C 136,36 138,110 138,223 L 138,1484 318,1484 318,1061 C 318,1018 317,967 314,908 L 318,908 C 351,977 396,1027 451,1057 506,1087 574,1102 655,1102 792,1102 892,1056 957,964 1021,872 1053,733 1053,546 Z M 864,540 C 864,691 844,800 804,865 764,930 699,963 609,963 508,963 434,928 388,859 341,790 318,680 318,529 318,387 341,282 386,215 431,147 505,113 607,113 698,113 763,147 804,214 844,281 864,389 864,540 Z"/>
   <glyph unicode="a" horiz-adv-x="1060" d="M 414,-20 C 305,-20 224,9 169,66 114,123 87,202 87,302 87,414 124,500 198,560 271,620 390,652 554,656 L 797,660 797,719 C 797,807 778,870 741,908 704,946 645,965 565,965 484,965 426,951 389,924 352,897 330,853 323,793 L 135,810 C 166,1005 310,1102 569,1102 705,1102 807,1071 876,1009 945,946 979,856 979,738 L 979,272 C 979,219 986,179 1000,152 1014,125 1041,111 1080,111 1097,111 1117,113 1139,118 L 1139,6 C 1094,-5 1047,-10 1000,-10 933,-10 885,8 855,43 824,78 807,132 803,207 L 797,207 C 751,124 698,66 637,32 576,-3 501,-20 414,-20 Z M 455,115 C 521,115 580,130 631,160 682,190 723,231 753,284 782,336 797,390 797,445 L 797,534 600,530 C 515,529 451,520 408,504 364,488 330,463 307,430 284,397 272,353 272,299 272,240 288,195 320,163 351,131 396,115 455,115 Z"/>
   <glyph unicode="_" horiz-adv-x="1218" d="M -31,-407 L -31,-277 1162,-277 1162,-407 -31,-407 Z"/>
   <glyph unicode="Z" horiz-adv-x="1139" d="M 1187,0 L 65,0 65,143 923,1253 138,1253 138,1409 1140,1409 1140,1270 282,156 1187,156 1187,0 Z"/>
   <glyph unicode="T" horiz-adv-x="1192" d="M 720,1253 L 720,0 530,0 530,1253 46,1253 46,1409 1204,1409 1204,1253 720,1253 Z"/>
   <glyph unicode="S" horiz-adv-x="1192" d="M 1272,389 C 1272,259 1221,158 1120,87 1018,16 875,-20 690,-20 347,-20 148,99 93,338 L 278,375 C 299,290 345,228 414,189 483,149 578,129 697,129 820,129 916,150 983,193 1050,235 1083,297 1083,379 1083,425 1073,462 1052,491 1031,520 1001,543 963,562 925,581 880,596 827,609 774,622 716,635 652,650 541,675 456,699 399,724 341,749 295,776 262,807 229,837 203,872 186,913 168,954 159,1000 159,1053 159,1174 205,1267 298,1332 390,1397 522,1430 694,1430 854,1430 976,1406 1061,1357 1146,1308 1205,1224 1239,1106 L 1051,1073 C 1030,1148 991,1202 933,1236 875,1269 795,1286 692,1286 579,1286 493,1267 434,1230 375,1193 345,1137 345,1063 345,1020 357,984 380,956 403,927 436,903 479,884 522,864 609,840 738,811 781,801 825,791 868,781 911,770 952,758 991,744 1030,729 1067,712 1102,693 1136,674 1166,650 1191,622 1216,594 1236,561 1251,523 1265,485 1272,440 1272,389 Z"/>
   <glyph unicode="O" horiz-adv-x="1430" d="M 1495,711 C 1495,564 1467,435 1411,324 1354,213 1273,128 1168,69 1063,10 938,-20 795,-20 650,-20 526,9 421,68 316,127 235,212 180,323 125,434 97,563 97,711 97,936 159,1113 282,1240 405,1367 577,1430 797,1430 940,1430 1065,1402 1170,1345 1275,1288 1356,1205 1412,1096 1467,987 1495,859 1495,711 Z M 1300,711 C 1300,886 1256,1024 1169,1124 1081,1224 957,1274 797,1274 636,1274 511,1225 423,1126 335,1027 291,889 291,711 291,534 336,394 425,291 514,187 637,135 795,135 958,135 1083,185 1170,286 1257,386 1300,528 1300,711 Z"/>
   <glyph unicode="N" horiz-adv-x="1165" d="M 1082,0 L 328,1200 333,1103 338,936 338,0 168,0 168,1409 390,1409 1152,201 C 1144,332 1140,426 1140,485 L 1140,1409 1312,1409 1312,0 1082,0 Z"/>
   <glyph unicode="C" horiz-adv-x="1297" d="M 792,1274 C 636,1274 515,1224 428,1124 341,1023 298,886 298,711 298,538 343,400 434,295 524,190 646,137 800,137 997,137 1146,235 1245,430 L 1401,352 C 1343,231 1262,138 1157,75 1052,12 930,-20 791,-20 649,-20 526,10 423,69 319,128 240,212 186,322 131,431 104,561 104,711 104,936 165,1112 286,1239 407,1366 575,1430 790,1430 940,1430 1065,1401 1166,1342 1267,1283 1341,1196 1388,1081 L 1207,1021 C 1174,1103 1122,1166 1050,1209 977,1252 891,1274 792,1274 Z"/>
   <glyph unicode="A" horiz-adv-x="1350" d="M 1167,0 L 1006,412 364,412 202,0 4,0 579,1409 796,1409 1362,0 1167,0 Z M 685,1265 L 676,1237 C 659,1182 635,1111 602,1024 L 422,561 949,561 768,1026 C 749,1072 731,1124 712,1182 L 685,1265 Z"/>
   <glyph unicode="9" horiz-adv-x="980" d="M 1042,733 C 1042,491 998,305 910,175 821,45 695,-20 532,-20 422,-20 334,3 268,50 201,96 154,171 125,274 L 297,301 C 333,184 412,125 535,125 638,125 718,173 775,269 832,365 861,502 864,680 837,620 792,572 727,536 662,499 591,481 514,481 387,481 286,524 210,611 134,698 96,813 96,956 96,1103 137,1219 220,1304 303,1388 418,1430 565,1430 722,1430 840,1372 921,1256 1002,1140 1042,966 1042,733 Z M 846,907 C 846,1020 820,1112 768,1181 716,1250 646,1284 559,1284 472,1284 404,1255 354,1196 304,1137 279,1057 279,956 279,853 304,772 354,713 404,653 472,623 557,623 609,623 657,635 702,659 747,682 782,716 808,759 833,802 846,852 846,907 Z"/>
   <glyph unicode="8" horiz-adv-x="980" d="M 1050,393 C 1050,263 1009,162 926,89 843,16 725,-20 570,-20 419,-20 302,16 217,87 132,158 89,260 89,391 89,483 115,560 168,623 221,686 288,724 370,737 L 370,741 C 293,759 233,798 189,858 144,918 122,988 122,1069 122,1176 162,1263 243,1330 323,1397 431,1430 566,1430 705,1430 814,1397 895,1332 975,1267 1015,1178 1015,1067 1015,986 993,916 948,856 903,796 842,758 765,743 L 765,739 C 855,724 925,686 975,625 1025,563 1050,486 1050,393 Z M 828,1057 C 828,1216 741,1296 566,1296 481,1296 417,1276 373,1236 328,1196 306,1136 306,1057 306,976 329,915 375,873 420,830 485,809 568,809 653,809 717,829 762,868 806,907 828,970 828,1057 Z M 863,410 C 863,497 837,563 785,608 733,652 660,674 566,674 475,674 403,650 352,603 301,555 275,489 275,406 275,212 374,115 572,115 670,115 743,139 791,186 839,233 863,307 863,410 Z"/>
   <glyph unicode="7" horiz-adv-x="953" d="M 1036,1263 C 892,1043 790,871 731,746 672,621 627,498 598,377 568,256 553,130 553,0 L 365,0 C 365,180 403,370 480,569 556,768 683,997 862,1256 L 105,1256 105,1409 1036,1409 1036,1263 Z"/>
   <glyph unicode="6" horiz-adv-x="953" d="M 1049,461 C 1049,312 1009,195 928,109 847,23 736,-20 594,-20 435,-20 314,39 230,157 146,275 104,447 104,672 104,916 148,1103 235,1234 322,1365 447,1430 608,1430 821,1430 955,1334 1010,1143 L 838,1112 C 803,1227 725,1284 606,1284 503,1284 424,1236 368,1141 311,1045 283,906 283,725 316,786 362,832 421,864 480,895 548,911 625,911 755,911 858,870 935,789 1011,708 1049,598 1049,461 Z M 866,453 C 866,555 841,634 791,689 741,744 671,772 582,772 498,772 430,748 379,699 327,650 301,582 301,496 301,387 328,298 382,229 435,160 504,125 588,125 675,125 743,154 792,213 841,271 866,351 866,453 Z"/>
   <glyph unicode="5" horiz-adv-x="980" d="M 1053,459 C 1053,310 1009,193 921,108 832,23 710,-20 553,-20 422,-20 316,9 235,66 154,123 103,206 82,315 L 264,336 C 302,197 400,127 557,127 654,127 729,156 784,215 839,273 866,353 866,455 866,544 839,615 784,670 729,725 654,752 561,752 512,752 467,744 425,729 383,714 341,688 299,651 L 123,651 170,1409 971,1409 971,1256 334,1256 307,809 C 385,869 482,899 598,899 737,899 847,858 930,777 1012,696 1053,590 1053,459 Z"/>
   <glyph unicode="4" horiz-adv-x="1060" d="M 881,319 L 881,0 711,0 711,319 47,319 47,459 692,1409 881,1409 881,461 1079,461 1079,319 881,319 Z M 711,1206 C 710,1202 700,1184 683,1153 666,1122 653,1100 644,1087 L 283,555 229,481 213,461 711,461 711,1206 Z"/>
   <glyph unicode="3" horiz-adv-x="980" d="M 1049,389 C 1049,259 1008,158 925,87 842,16 724,-20 571,-20 428,-20 315,12 230,77 145,141 94,236 78,362 L 264,379 C 288,212 390,129 571,129 662,129 733,151 785,196 836,241 862,307 862,395 862,472 833,532 774,575 715,618 629,639 518,639 L 416,639 416,795 514,795 C 613,795 689,817 744,860 798,903 825,962 825,1038 825,1113 803,1173 759,1217 714,1260 648,1282 561,1282 482,1282 418,1262 369,1221 320,1180 291,1123 283,1049 L 102,1063 C 115,1178 163,1268 246,1333 328,1398 434,1430 563,1430 704,1430 814,1397 893,1332 971,1266 1010,1174 1010,1057 1010,967 985,894 935,838 884,781 811,743 715,723 L 715,719 C 820,708 902,672 961,613 1020,554 1049,479 1049,389 Z"/>
   <glyph unicode="2" horiz-adv-x="980" d="M 103,0 L 103,127 C 137,205 179,274 228,334 277,393 328,447 382,496 436,544 490,589 543,630 596,671 643,713 686,754 729,795 763,839 790,884 816,929 829,981 829,1038 829,1115 806,1175 761,1218 716,1261 653,1282 572,1282 495,1282 432,1261 383,1220 333,1178 304,1119 295,1044 L 111,1061 C 124,1174 172,1263 255,1330 337,1397 443,1430 572,1430 714,1430 823,1397 900,1330 976,1263 1014,1167 1014,1044 1014,989 1002,935 977,881 952,827 914,773 865,719 816,665 721,581 582,468 505,405 444,349 399,299 354,248 321,200 301,153 L 1036,153 1036,0 103,0 Z"/>
   <glyph unicode="1" horiz-adv-x="900" d="M 156,0 L 156,153 515,153 515,1237 197,1010 197,1180 530,1409 696,1409 696,153 1039,153 1039,0 156,0 Z"/>
   <glyph unicode="0" horiz-adv-x="980" d="M 1059,705 C 1059,470 1018,290 935,166 852,42 729,-20 567,-20 405,-20 283,42 202,165 121,288 80,468 80,705 80,947 120,1128 199,1249 278,1370 402,1430 573,1430 739,1430 862,1369 941,1247 1020,1125 1059,944 1059,705 Z M 876,705 C 876,908 853,1056 806,1147 759,1238 681,1284 573,1284 462,1284 383,1239 335,1149 286,1059 262,911 262,705 262,505 287,359 336,266 385,173 462,127 569,127 675,127 753,174 802,269 851,364 876,509 876,705 Z"/>
   <glyph unicode="/" horiz-adv-x="557" d="M 0,-20 L 411,1484 569,1484 162,-20 0,-20 Z"/>
   <glyph unicode="-" horiz-adv-x="531" d="M 91,464 L 91,624 591,624 591,464 91,464 Z"/>
   <glyph unicode="," horiz-adv-x="239" d="M 385,219 L 385,51 C 385,-20 379,-79 366,-126 353,-173 334,-219 307,-262 L 184,-262 C 247,-171 278,-84 278,0 L 190,0 190,219 385,219 Z"/>
   <glyph unicode=")" horiz-adv-x="583" d="M 555,528 C 555,335 525,162 465,9 404,-144 311,-289 186,-424 L 12,-424 C 137,-284 229,-136 287,19 345,174 374,344 374,530 374,716 345,887 287,1042 228,1197 137,1345 12,1484 L 186,1484 C 312,1348 405,1203 465,1050 525,896 555,723 555,532 L 555,528 Z"/>
   <glyph unicode="(" horiz-adv-x="583" d="M 127,532 C 127,725 157,898 218,1051 278,1204 371,1349 496,1484 L 670,1484 C 545,1345 454,1198 396,1042 337,886 308,715 308,530 308,345 337,175 395,20 452,-135 544,-283 670,-424 L 496,-424 C 370,-288 277,-143 217,11 157,164 127,337 127,528 L 127,532 Z"/>
   <glyph unicode="%" horiz-adv-x="1694" d="M 1748,434 C 1748,291 1721,181 1667,104 1613,27 1533,-12 1428,-12 1324,-12 1246,26 1193,101 1140,176 1113,287 1113,434 1113,586 1139,699 1190,774 1241,848 1321,885 1432,885 1541,885 1621,847 1672,771 1723,694 1748,582 1748,434 Z M 527,0 L 372,0 1294,1409 1451,1409 527,0 Z M 394,1421 C 500,1421 579,1384 630,1309 681,1234 707,1123 707,975 707,830 681,719 628,641 575,563 495,524 390,524 285,524 206,563 153,640 100,717 73,829 73,975 73,1124 99,1235 150,1310 201,1384 283,1421 394,1421 Z M 1600,434 C 1600,553 1587,640 1562,694 1536,747 1493,774 1432,774 1371,774 1328,748 1301,695 1274,642 1260,555 1260,434 1260,320 1273,236 1300,181 1326,126 1369,98 1430,98 1489,98 1532,126 1559,182 1586,237 1600,321 1600,434 Z M 560,975 C 560,1092 547,1178 522,1232 497,1286 454,1313 394,1313 331,1313 287,1287 260,1234 233,1181 220,1094 220,975 220,860 233,775 260,720 287,665 331,637 392,637 450,637 493,665 520,721 547,777 560,862 560,975 Z"/>
   <glyph unicode=" " horiz-adv-x="556"/>
  </font>
 </defs>
 <defs class="EmbeddedBulletChars">
  <g id="bullet-char-template-57356" transform="scale(0.00048828125,-0.00048828125)">
   <path d="M 580,1141 L 1163,571 580,0 -4,571 580,1141 Z"/>
  </g>
  <g id="bullet-char-template-57354" transform="scale(0.00048828125,-0.00048828125)">
   <path d="M 8,1128 L 1137,1128 1137,0 8,0 8,1128 Z"/>
  </g>
  <g id="bullet-char-template-10146" transform="scale(0.00048828125,-0.00048828125)">
   <path d="M 174,0 L 602,739 174,1481 1456,739 174,0 Z M 1358,739 L 309,1346 659,739 1358,739 Z"/>
  </g>
  <g id="bullet-char-template-10132" transform="scale(0.00048828125,-0.00048828125)">
   <path d="M 2015,739 L 1276,0 717,0 1260,543 174,543 174,936 1260,936 717,1481 1274,1481 2015,739 Z"/>
  </g>
  <g id="bullet-char-template-10007" transform="scale(0.00048828125,-0.00048828125)">
   <path d="M 0,-2 C -7,14 -16,27 -25,37 L 356,567 C 262,823 215,952 215,954 215,979 228,992 255,992 264,992 276,990 289,987 310,991 331,999 354,1012 L 381,999 492,748 772,1049 836,1024 860,1049 C 881,1039 901,1025 922,1006 886,937 835,863 770,784 769,783 710,716 594,584 L 774,223 C 774,196 753,168 711,139 L 727,119 C 717,90 699,76 672,76 641,76 570,178 457,381 L 164,-76 C 142,-110 111,-127 72,-127 30,-127 9,-110 8,-76 1,-67 -2,-52 -2,-32 -2,-23 -1,-13 0,-2 Z"/>
  </g>
  <g id="bullet-char-template-10004" transform="scale(0.00048828125,-0.00048828125)">
   <path d="M 285,-33 C 182,-33 111,30 74,156 52,228 41,333 41,471 41,549 55,616 82,672 116,743 169,778 240,778 293,778 328,747 346,684 L 369,508 C 377,444 397,411 428,410 L 1163,1116 C 1174,1127 1196,1133 1229,1133 1271,1133 1292,1118 1292,1087 L 1292,965 C 1292,929 1282,901 1262,881 L 442,47 C 390,-6 338,-33 285,-33 Z"/>
  </g>
  <g id="bullet-char-template-9679" transform="scale(0.00048828125,-0.00048828125)">
   <path d="M 813,0 C 632,0 489,54 383,161 276,268 223,411 223,592 223,773 276,916 383,1023 489,1130 632,1184 813,1184 992,1184 1136,1130 1245,1023 1353,916 1407,772 1407,592 1407,412 1353,268 1245,161 1136,54 992,0 813,0 Z"/>
  </g>
  <g id="bullet-char-template-8226" transform="scale(0.00048828125,-0.00048828125)">
   <path d="M 346,457 C 273,457 209,483 155,535 101,586 74,649 74,723 74,796 101,859 155,911 209,963 273,989 346,989 419,989 480,963 531,910 582,859 608,796 608,723 608,648 583,586 532,535 482,483 420,457 346,457 Z"/>
  </g>
  <g id="bullet-char-template-8211" transform="scale(0.00048828125,-0.00048828125)">
   <path d="M -4,459 L 1135,459 1135,606 -4,606 -4,459 Z"/>
  </g>
  <g id="bullet-char-template-61548" transform="scale(0.00048828125,-0.00048828125)">
   <path d="M 173,740 C 173,903 231,1043 346,1159 462,1274 601,1332 765,1332 928,1332 1067,1274 1183,1159 1299,1043 1357,903 1357,740 1357,577 1299,437 1183,322 1067,206 928,148 765,148 601,148 462,206 346,322 231,437 173,577 173,740 Z"/>
  </g>
 </defs>
 <g class="Page">
  <g class="OLE2">
   <g id="id3">
    <rect class="BoundingBox" stroke="none" fill="none" x="11380" y="5649" width="9751" height="4496"/>
    <defs>
     <clipPath id="clip_path_1" clipPathUnits="userSpaceOnUse">
      <path d="M 11380,5649 L 21130,5649 21130,10144 11380,10144 11380,5649 Z"/>
     </clipPath>
    </defs>
    <g clip-path="url(#clip_path_1)"/>
    <rect fill="rgb(131,202,255)" stroke="none" x="11381" y="5630" width="9697" height="687"/>
    <rect fill="rgb(0,255,0)" stroke="none" x="16282" y="6316" width="4797" height="344"/>
    <rect fill="rgb(0,132,0)" stroke="none" x="16282" y="7345" width="4797" height="344"/>
    <rect fill="rgb(186,186,186)" stroke="none" x="16282" y="8374" width="4797" height="344"/>
    <rect fill="rgb(0,0,0)" stroke="none" x="16282" y="9403" width="4797" height="344"/>
    <path fill="none" stroke="rgb(0,0,0)" stroke-width="20" stroke-linejoin="round" d="M 11360,5655 L 21124,5655"/>
    <path fill="none" stroke="rgb(0,0,0)" stroke-width="41" stroke-linejoin="round" d="M 11380,5645 L 11380,5999"/>
    <path fill="none" stroke="rgb(0,0,0)" stroke-width="20" stroke-linejoin="round" d="M 13102,5645 L 13102,9768"/>
    <path fill="none" stroke="rgb(0,0,0)" stroke-width="20" stroke-linejoin="round" d="M 14702,5645 L 14702,9768"/>
    <path fill="none" stroke="rgb(0,0,0)" stroke-width="20" stroke-linejoin="round" d="M 16302,5645 L 16302,9768"/>
    <path fill="none" stroke="rgb(0,0,0)" stroke-width="20" stroke-linejoin="round" d="M 17903,5645 L 17903,9768"/>
    <path fill="none" stroke="rgb(0,0,0)" stroke-width="20" stroke-linejoin="round" d="M 19504,5645 L 19504,9768"/>
    <path fill="none" stroke="rgb(0,0,0)" stroke-width="41" stroke-linejoin="round" d="M 21104,5645 L 21104,10131"/>
    <path fill="none" stroke="rgb(0,0,0)" stroke-width="41" stroke-linejoin="round" d="M 21104,5645 L 21104,10131"/>
    <path fill="none" stroke="rgb(0,0,0)" stroke-width="20" stroke-linejoin="round" d="M 11380,5999 L 11380,9768"/>
    <path fill="none" stroke="rgb(0,0,0)" stroke-width="41" stroke-linejoin="round" d="M 11360,10111 L 21124,10111"/>
    <path fill="none" stroke="rgb(0,0,0)" stroke-width="41" stroke-linejoin="round" d="M 11380,9768 L 11380,10131"/>
    <path fill="none" stroke="rgb(0,0,0)" stroke-width="41" stroke-linejoin="round" d="M 11360,10111 L 21124,10111"/>
    <text class="SVGTextShape"><tspan class="TextParagraph" font-family="Liberation Sans, sans-serif" font-size="270px" font-weight="400"><tspan class="TextPosition" x="11746" y="5906"><tspan fill="rgb(0,0,0)" stroke="none" style="white-space: pre">pO2max</tspan></tspan></tspan></text>
    <text class="SVGTextShape"><tspan class="TextParagraph" font-family="Liberation Sans, sans-serif" font-size="270px" font-weight="400"><tspan class="TextPosition" x="13295" y="5906"><tspan fill="rgb(0,0,0)" stroke="none" style="white-space: pre">CNS O2%</tspan></tspan></tspan></text>
    <text class="SVGTextShape"><tspan class="TextParagraph" font-family="Liberation Sans, sans-serif" font-size="270px" font-weight="400"><tspan class="TextPosition" x="15087" y="5906"><tspan fill="rgb(0,0,0)" stroke="none" style="white-space: pre">TZmax</tspan></tspan></tspan></text>
    <text class="SVGTextShape"><tspan class="TextParagraph" font-family="Liberation Sans, sans-serif" font-size="270px" font-weight="400"><tspan class="TextPosition" x="16533" y="5906"><tspan fill="rgb(0,0,0)" stroke="none" style="white-space: pre">pO2_max</tspan></tspan></tspan></text>
    <text class="SVGTextShape"><tspan class="TextParagraph" font-family="Liberation Sans, sans-serif" font-size="270px" font-weight="400"><tspan class="TextPosition" x="18091" y="5906"><tspan fill="rgb(0,0,0)" stroke="none" style="white-space: pre">CNS O2%</tspan></tspan></tspan></text>
    <text class="SVGTextShape"><tspan class="TextParagraph" font-family="Liberation Sans, sans-serif" font-size="270px" font-weight="400"><tspan class="TextPosition" x="19883" y="5906"><tspan fill="rgb(0,0,0)" stroke="none" style="white-space: pre">TZmax</tspan></tspan></tspan></text>
    <text class="SVGTextShape"><tspan class="TextParagraph" font-family="Liberation Sans, sans-serif" font-size="270px" font-weight="400"><tspan class="TextPosition" x="11979" y="6249"><tspan fill="rgb(0,0,0)" stroke="none" style="white-space: pre">(bar)</tspan></tspan></tspan></text>
    <text class="SVGTextShape"><tspan class="TextParagraph" font-family="Liberation Sans, sans-serif" font-size="270px" font-weight="400"><tspan class="TextPosition" x="13447" y="6249"><tspan fill="rgb(0,0,0)" stroke="none" style="white-space: pre">(%/min)</tspan></tspan></tspan></text>
    <text class="SVGTextShape"><tspan class="TextParagraph" font-family="Liberation Sans, sans-serif" font-size="270px" font-weight="400"><tspan class="TextPosition" x="15208" y="6249"><tspan fill="rgb(0,0,0)" stroke="none" style="white-space: pre">(min)</tspan></tspan></tspan></text>
    <text class="SVGTextShape"><tspan class="TextParagraph" font-family="Liberation Sans, sans-serif" font-size="270px" font-weight="400"><tspan class="TextPosition" x="16877" y="6249"><tspan fill="rgb(0,0,0)" stroke="none" style="white-space: pre">(bar</tspan></tspan></tspan></text>
    <text class="SVGTextShape"><tspan class="TextParagraph" font-family="Liberation Sans, sans-serif" font-size="270px" font-weight="400"><tspan class="TextPosition" x="18243" y="6249"><tspan fill="rgb(0,0,0)" stroke="none" style="white-space: pre">(%/min)</tspan></tspan></tspan></text>
    <text class="SVGTextShape"><tspan class="TextParagraph" font-family="Liberation Sans, sans-serif" font-size="270px" font-weight="400"><tspan class="TextPosition" x="20004" y="6249"><tspan fill="rgb(0,0,0)" stroke="none" style="white-space: pre">(min)</tspan></tspan></tspan></text>
    <text class="SVGTextShape"><tspan class="TextParagraph" font-family="Liberation Sans, sans-serif" font-size="270px" font-weight="400"><tspan class="TextPosition" x="11989" y="6592"><tspan fill="rgb(0,0,0)" stroke="none" style="white-space: pre">0,96</tspan></tspan></tspan></text>
    <text class="SVGTextShape"><tspan class="TextParagraph" font-family="Liberation Sans, sans-serif" font-size="270px" font-weight="400"><tspan class="TextPosition" x="13650" y="6592"><tspan fill="rgb(0,0,0)" stroke="none" style="white-space: pre">0,31</tspan></tspan></tspan></text>
    <text class="SVGTextShape"><tspan class="TextParagraph" font-family="Liberation Sans, sans-serif" font-size="270px" font-weight="400"><tspan class="TextPosition" x="15289" y="6592"><tspan fill="rgb(0,0,0)" stroke="none" style="white-space: pre">323</tspan></tspan></tspan></text>
    <text class="SVGTextShape"><tspan class="TextParagraph" font-family="Liberation Sans, sans-serif" font-size="270px" font-weight="400"><tspan class="TextPosition" x="16848" y="6592"><tspan fill="rgb(0,0,0)" stroke="none" style="white-space: pre">1,30</tspan></tspan></tspan></text>
    <text class="SVGTextShape"><tspan class="TextParagraph" font-family="Liberation Sans, sans-serif" font-size="270px" font-weight="400"><tspan class="TextPosition" x="18446" y="6592"><tspan fill="rgb(0,0,0)" stroke="none" style="white-space: pre">0,56</tspan></tspan></tspan></text>
    <text class="SVGTextShape"><tspan class="TextParagraph" font-family="Liberation Sans, sans-serif" font-size="270px" font-weight="400"><tspan class="TextPosition" x="20085" y="6592"><tspan fill="rgb(0,0,0)" stroke="none" style="white-space: pre">179</tspan></tspan></tspan></text>
    <text class="SVGTextShape"><tspan class="TextParagraph" font-family="Liberation Sans, sans-serif" font-size="270px" font-weight="400"><tspan class="TextPosition" x="11989" y="6935"><tspan fill="rgb(0,0,0)" stroke="none" style="white-space: pre">1,00</tspan></tspan></tspan></text>
    <text class="SVGTextShape"><tspan class="TextParagraph" font-family="Liberation Sans, sans-serif" font-size="270px" font-weight="400"><tspan class="TextPosition" x="13650" y="6935"><tspan fill="rgb(0,0,0)" stroke="none" style="white-space: pre">0,33</tspan></tspan></tspan></text>
    <text class="SVGTextShape"><tspan class="TextParagraph" font-family="Liberation Sans, sans-serif" font-size="270px" font-weight="400"><tspan class="TextPosition" x="15289" y="6935"><tspan fill="rgb(0,0,0)" stroke="none" style="white-space: pre">303</tspan></tspan></tspan></text>
    <text class="SVGTextShape"><tspan class="TextParagraph" font-family="Liberation Sans, sans-serif" font-size="270px" font-weight="400"><tspan class="TextPosition" x="16848" y="6935"><tspan fill="rgb(0,0,0)" stroke="none" style="white-space: pre">1,34</tspan></tspan></tspan></text>
    <text class="SVGTextShape"><tspan class="TextParagraph" font-family="Liberation Sans, sans-serif" font-size="270px" font-weight="400"><tspan class="TextPosition" x="18446" y="6935"><tspan fill="rgb(0,0,0)" stroke="none" style="white-space: pre">0,60</tspan></tspan></tspan></text>
    <text class="SVGTextShape"><tspan class="TextParagraph" font-family="Liberation Sans, sans-serif" font-size="270px" font-weight="400"><tspan class="TextPosition" x="20085" y="6935"><tspan fill="rgb(0,0,0)" stroke="none" style="white-space: pre">167</tspan></tspan></tspan></text>
    <text class="SVGTextShape"><tspan class="TextParagraph" font-family="Liberation Sans, sans-serif" font-size="270px" font-weight="400"><tspan class="TextPosition" x="11989" y="7278"><tspan fill="rgb(0,0,0)" stroke="none" style="white-space: pre">1,04</tspan></tspan></tspan></text>
    <text class="SVGTextShape"><tspan class="TextParagraph" font-family="Liberation Sans, sans-serif" font-size="270px" font-weight="400"><tspan class="TextPosition" x="13650" y="7278"><tspan fill="rgb(0,0,0)" stroke="none" style="white-space: pre">0,36</tspan></tspan></tspan></text>
    <text class="SVGTextShape"><tspan class="TextParagraph" font-family="Liberation Sans, sans-serif" font-size="270px" font-weight="400"><tspan class="TextPosition" x="15289" y="7278"><tspan fill="rgb(0,0,0)" stroke="none" style="white-space: pre">278</tspan></tspan></tspan></text>
    <text class="SVGTextShape"><tspan class="TextParagraph" font-family="Liberation Sans, sans-serif" font-size="270px" font-weight="400"><tspan class="TextPosition" x="16848" y="7278"><tspan fill="rgb(0,0,0)" stroke="none" style="white-space: pre">1,36</tspan></tspan></tspan></text>
    <text class="SVGTextShape"><tspan class="TextParagraph" font-family="Liberation Sans, sans-serif" font-size="270px" font-weight="400"><tspan class="TextPosition" x="18446" y="7278"><tspan fill="rgb(0,0,0)" stroke="none" style="white-space: pre">0,62</tspan></tspan></tspan></text>
    <text class="SVGTextShape"><tspan class="TextParagraph" font-family="Liberation Sans, sans-serif" font-size="270px" font-weight="400"><tspan class="TextPosition" x="20085" y="7278"><tspan fill="rgb(0,0,0)" stroke="none" style="white-space: pre">161</tspan></tspan></tspan></text>
    <text class="SVGTextShape"><tspan class="TextParagraph" font-family="Liberation Sans, sans-serif" font-size="270px" font-weight="400"><tspan class="TextPosition" x="11989" y="7621"><tspan fill="rgb(0,0,0)" stroke="none" style="white-space: pre">1,06</tspan></tspan></tspan></text>
    <text class="SVGTextShape"><tspan class="TextParagraph" font-family="Liberation Sans, sans-serif" font-size="270px" font-weight="400"><tspan class="TextPosition" x="13650" y="7621"><tspan fill="rgb(0,0,0)" stroke="none" style="white-space: pre">0,38</tspan></tspan></tspan></text>
    <text class="SVGTextShape"><tspan class="TextParagraph" font-family="Liberation Sans, sans-serif" font-size="270px" font-weight="400"><tspan class="TextPosition" x="15289" y="7621"><tspan fill="rgb(0,0,0)" stroke="none" style="white-space: pre">263</tspan></tspan></tspan></text>
    <text class="SVGTextShape"><tspan class="TextParagraph" font-family="Liberation Sans, sans-serif" font-size="270px" font-weight="400"><tspan class="TextPosition" x="16848" y="7621"><tspan fill="rgb(255,255,255)" stroke="none" style="white-space: pre">1,40</tspan></tspan></tspan></text>
    <text class="SVGTextShape"><tspan class="TextParagraph" font-family="Liberation Sans, sans-serif" font-size="270px" font-weight="400"><tspan class="TextPosition" x="18446" y="7621"><tspan fill="rgb(255,255,255)" stroke="none" style="white-space: pre">0,65</tspan></tspan></tspan></text>
    <text class="SVGTextShape"><tspan class="TextParagraph" font-family="Liberation Sans, sans-serif" font-size="270px" font-weight="400"><tspan class="TextPosition" x="20085" y="7621"><tspan fill="rgb(255,255,255)" stroke="none" style="white-space: pre">154</tspan></tspan></tspan></text>
    <text class="SVGTextShape"><tspan class="TextParagraph" font-family="Liberation Sans, sans-serif" font-size="270px" font-weight="400"><tspan class="TextPosition" x="11989" y="7964"><tspan fill="rgb(0,0,0)" stroke="none" style="white-space: pre">1,10</tspan></tspan></tspan></text>
    <text class="SVGTextShape"><tspan class="TextParagraph" font-family="Liberation Sans, sans-serif" font-size="270px" font-weight="400"><tspan class="TextPosition" x="13650" y="7964"><tspan fill="rgb(0,0,0)" stroke="none" style="white-space: pre">0,42</tspan></tspan></tspan></text>
    <text class="SVGTextShape"><tspan class="TextParagraph" font-family="Liberation Sans, sans-serif" font-size="270px" font-weight="400"><tspan class="TextPosition" x="15289" y="7964"><tspan fill="rgb(0,0,0)" stroke="none" style="white-space: pre">238</tspan></tspan></tspan></text>
    <text class="SVGTextShape"><tspan class="TextParagraph" font-family="Liberation Sans, sans-serif" font-size="270px" font-weight="400"><tspan class="TextPosition" x="16848" y="7964"><tspan fill="rgb(0,0,0)" stroke="none" style="white-space: pre">1,44</tspan></tspan></tspan></text>
    <text class="SVGTextShape"><tspan class="TextParagraph" font-family="Liberation Sans, sans-serif" font-size="270px" font-weight="400"><tspan class="TextPosition" x="18446" y="7964"><tspan fill="rgb(0,0,0)" stroke="none" style="white-space: pre">0,71</tspan></tspan></tspan></text>
    <text class="SVGTextShape"><tspan class="TextParagraph" font-family="Liberation Sans, sans-serif" font-size="270px" font-weight="400"><tspan class="TextPosition" x="20085" y="7964"><tspan fill="rgb(0,0,0)" stroke="none" style="white-space: pre">141</tspan></tspan></tspan></text>
    <text class="SVGTextShape"><tspan class="TextParagraph" font-family="Liberation Sans, sans-serif" font-size="270px" font-weight="400"><tspan class="TextPosition" x="11989" y="8307"><tspan fill="rgb(0,0,0)" stroke="none" style="white-space: pre">1,14</tspan></tspan></tspan></text>
    <text class="SVGTextShape"><tspan class="TextParagraph" font-family="Liberation Sans, sans-serif" font-size="270px" font-weight="400"><tspan class="TextPosition" x="13650" y="8307"><tspan fill="rgb(0,0,0)" stroke="none" style="white-space: pre">0,43</tspan></tspan></tspan></text>
    <text class="SVGTextShape"><tspan class="TextParagraph" font-family="Liberation Sans, sans-serif" font-size="270px" font-weight="400"><tspan class="TextPosition" x="15289" y="8307"><tspan fill="rgb(0,0,0)" stroke="none" style="white-space: pre">233</tspan></tspan></tspan></text>
    <text class="SVGTextShape"><tspan class="TextParagraph" font-family="Liberation Sans, sans-serif" font-size="270px" font-weight="400"><tspan class="TextPosition" x="16848" y="8307"><tspan fill="rgb(0,0,0)" stroke="none" style="white-space: pre">1,46</tspan></tspan></tspan></text>
    <text class="SVGTextShape"><tspan class="TextParagraph" font-family="Liberation Sans, sans-serif" font-size="270px" font-weight="400"><tspan class="TextPosition" x="18446" y="8307"><tspan fill="rgb(0,0,0)" stroke="none" style="white-space: pre">0,74</tspan></tspan></tspan></text>
    <text class="SVGTextShape"><tspan class="TextParagraph" font-family="Liberation Sans, sans-serif" font-size="270px" font-weight="400"><tspan class="TextPosition" x="20085" y="8307"><tspan fill="rgb(0,0,0)" stroke="none" style="white-space: pre">135</tspan></tspan></tspan></text>
    <text class="SVGTextShape"><tspan class="TextParagraph" font-family="Liberation Sans, sans-serif" font-size="270px" font-weight="400"><tspan class="TextPosition" x="11989" y="8650"><tspan fill="rgb(0,0,0)" stroke="none" style="white-space: pre">1,16</tspan></tspan></tspan></text>
    <text class="SVGTextShape"><tspan class="TextParagraph" font-family="Liberation Sans, sans-serif" font-size="270px" font-weight="400"><tspan class="TextPosition" x="13650" y="8650"><tspan fill="rgb(0,0,0)" stroke="none" style="white-space: pre">0,44</tspan></tspan></tspan></text>
    <text class="SVGTextShape"><tspan class="TextParagraph" font-family="Liberation Sans, sans-serif" font-size="270px" font-weight="400"><tspan class="TextPosition" x="15289" y="8650"><tspan fill="rgb(0,0,0)" stroke="none" style="white-space: pre">227</tspan></tspan></tspan></text>
    <text class="SVGTextShape"><tspan class="TextParagraph" font-family="Liberation Sans, sans-serif" font-size="270px" font-weight="400"><tspan class="TextPosition" x="16848" y="8650"><tspan fill="rgb(255,255,255)" stroke="none" style="white-space: pre">1,50</tspan></tspan></tspan></text>
    <text class="SVGTextShape"><tspan class="TextParagraph" font-family="Liberation Sans, sans-serif" font-size="270px" font-weight="400"><tspan class="TextPosition" x="18446" y="8650"><tspan fill="rgb(255,255,255)" stroke="none" style="white-space: pre">0,83</tspan></tspan></tspan></text>
    <text class="SVGTextShape"><tspan class="TextParagraph" font-family="Liberation Sans, sans-serif" font-size="270px" font-weight="400"><tspan class="TextPosition" x="20085" y="8650"><tspan fill="rgb(255,255,255)" stroke="none" style="white-space: pre">120</tspan></tspan></tspan></text>
    <text class="SVGTextShape"><tspan class="TextParagraph" font-family="Liberation Sans, sans-serif" font-size="270px" font-weight="400"><tspan class="TextPosition" x="11989" y="8993"><tspan fill="rgb(0,0,0)" stroke="none" style="white-space: pre">1,20</tspan></tspan></tspan></text>
    <text class="SVGTextShape"><tspan class="TextParagraph" font-family="Liberation Sans, sans-serif" font-size="270px" font-weight="400"><tspan class="TextPosition" x="13650" y="8993"><tspan fill="rgb(0,0,0)" stroke="none" style="white-space: pre">0,47</tspan></tspan></tspan></text>
    <text class="SVGTextShape"><tspan class="TextParagraph" font-family="Liberation Sans, sans-serif" font-size="270px" font-weight="400"><tspan class="TextPosition" x="15289" y="8993"><tspan fill="rgb(0,0,0)" stroke="none" style="white-space: pre">213</tspan></tspan></tspan></text>
    <text class="SVGTextShape"><tspan class="TextParagraph" font-family="Liberation Sans, sans-serif" font-size="270px" font-weight="400"><tspan class="TextPosition" x="16848" y="8993"><tspan fill="rgb(0,0,0)" stroke="none" style="white-space: pre">1,54</tspan></tspan></tspan></text>
    <text class="SVGTextShape"><tspan class="TextParagraph" font-family="Liberation Sans, sans-serif" font-size="270px" font-weight="400"><tspan class="TextPosition" x="18446" y="8993"><tspan fill="rgb(0,0,0)" stroke="none" style="white-space: pre">1,04</tspan></tspan></tspan></text>
    <text class="SVGTextShape"><tspan class="TextParagraph" font-family="Liberation Sans, sans-serif" font-size="270px" font-weight="400"><tspan class="TextPosition" x="20156" y="8993"><tspan fill="rgb(0,0,0)" stroke="none" style="white-space: pre">96</tspan></tspan></tspan></text>
    <text class="SVGTextShape"><tspan class="TextParagraph" font-family="Liberation Sans, sans-serif" font-size="270px" font-weight="400"><tspan class="TextPosition" x="11989" y="9336"><tspan fill="rgb(0,0,0)" stroke="none" style="white-space: pre">1,24</tspan></tspan></tspan></text>
    <text class="SVGTextShape"><tspan class="TextParagraph" font-family="Liberation Sans, sans-serif" font-size="270px" font-weight="400"><tspan class="TextPosition" x="13650" y="9336"><tspan fill="rgb(0,0,0)" stroke="none" style="white-space: pre">0,51</tspan></tspan></tspan></text>
    <text class="SVGTextShape"><tspan class="TextParagraph" font-family="Liberation Sans, sans-serif" font-size="270px" font-weight="400"><tspan class="TextPosition" x="15289" y="9336"><tspan fill="rgb(0,0,0)" stroke="none" style="white-space: pre">196</tspan></tspan></tspan></text>
    <text class="SVGTextShape"><tspan class="TextParagraph" font-family="Liberation Sans, sans-serif" font-size="270px" font-weight="400"><tspan class="TextPosition" x="16848" y="9336"><tspan fill="rgb(0,0,0)" stroke="none" style="white-space: pre">1,56</tspan></tspan></tspan></text>
    <text class="SVGTextShape"><tspan class="TextParagraph" font-family="Liberation Sans, sans-serif" font-size="270px" font-weight="400"><tspan class="TextPosition" x="18446" y="9336"><tspan fill="rgb(0,0,0)" stroke="none" style="white-space: pre">1,19</tspan></tspan></tspan></text>
    <text class="SVGTextShape"><tspan class="TextParagraph" font-family="Liberation Sans, sans-serif" font-size="270px" font-weight="400"><tspan class="TextPosition" x="20156" y="9336"><tspan fill="rgb(0,0,0)" stroke="none" style="white-space: pre">84</tspan></tspan></tspan></text>
    <text class="SVGTextShape"><tspan class="TextParagraph" font-family="Liberation Sans, sans-serif" font-size="270px" font-weight="400"><tspan class="TextPosition" x="11989" y="9679"><tspan fill="rgb(0,0,0)" stroke="none" style="white-space: pre">1,26</tspan></tspan></tspan></text>
    <text class="SVGTextShape"><tspan class="TextParagraph" font-family="Liberation Sans, sans-serif" font-size="270px" font-weight="400"><tspan class="TextPosition" x="13650" y="9679"><tspan fill="rgb(0,0,0)" stroke="none" style="white-space: pre">0,52</tspan></tspan></tspan></text>
    <text class="SVGTextShape"><tspan class="TextParagraph" font-family="Liberation Sans, sans-serif" font-size="270px" font-weight="400"><tspan class="TextPosition" x="15289" y="9679"><tspan fill="rgb(0,0,0)" stroke="none" style="white-space: pre">192</tspan></tspan></tspan></text>
    <text class="SVGTextShape"><tspan class="TextParagraph" font-family="Liberation Sans, sans-serif" font-size="270px" font-weight="400"><tspan class="TextPosition" x="16848" y="9679"><tspan fill="rgb(255,255,255)" stroke="none" style="white-space: pre">1,60</tspan></tspan></tspan></text>
    <text class="SVGTextShape"><tspan class="TextParagraph" font-family="Liberation Sans, sans-serif" font-size="270px" font-weight="400"><tspan class="TextPosition" x="18446" y="9679"><tspan fill="rgb(255,255,255)" stroke="none" style="white-space: pre">2,22</tspan></tspan></tspan></text>
    <text class="SVGTextShape"><tspan class="TextParagraph" font-family="Liberation Sans, sans-serif" font-size="270px" font-weight="400"><tspan class="TextPosition" x="20156" y="9679"><tspan fill="rgb(255,255,255)" stroke="none" style="white-space: pre">45</tspan></tspan></tspan></text>
    <text class="SVGTextShape"><tspan class="TextParagraph" font-family="Liberation Sans, sans-serif" font-size="270px" font-weight="400"><tspan class="TextPosition" x="14669" y="10022"><tspan fill="rgb(0,0,0)" stroke="none" style="white-space: pre">NOAA CNS O2% - Tabelle</tspan></tspan></tspan></text>
    <defs>
     <clipPath id="clip_path_2" clipPathUnits="userSpaceOnUse">
      <path d="M 11380,5649 L 21130,5649 21130,10144 11380,10144 11380,5649 Z"/>
     </clipPath>
    </defs>
    <g clip-path="url(#clip_path_2)"/>
    <defs>
     <clipPath id="clip_path_3" clipPathUnits="userSpaceOnUse">
      <path d="M 11380,5649 L 21130,5649 21130,10144 11380,10144 11380,5649 Z"/>
     </clipPath>
    </defs>
    <g clip-path="url(#clip_path_3)"/>
    <defs>
     <clipPath id="clip_path_4" clipPathUnits="userSpaceOnUse">
      <path d="M 11380,5649 L 21130,5649 21130,10144 11380,10144 11380,5649 Z"/>
     </clipPath>
    </defs>
    <g clip-path="url(#clip_path_4)"/>
   </g>
  </g>
 </g>
</svg>